<?xml version="1.0" standalone="no"?>
<!DOCTYPE svg PUBLIC "-//W3C//DTD SVG 1.1//EN" "http://www.w3.org/Graphics/SVG/1.1/DTD/svg11.dtd" >
<svg xmlns="http://www.w3.org/2000/svg">
<metadata></metadata>
<defs>
<font id="open_sanssemibold" horiz-adv-x="1169" >
<font-face units-per-em="2048" ascent="1638" descent="-410" />
<missing-glyph horiz-adv-x="532" />
<glyph horiz-adv-x="2048" />
<glyph horiz-adv-x="2048" />
<glyph unicode="&#xd;" horiz-adv-x="1044" />
<glyph unicode=" "  horiz-adv-x="532" />
<glyph unicode="&#x09;" horiz-adv-x="532" />
<glyph unicode="&#xa0;" horiz-adv-x="532" />
<glyph unicode="!" horiz-adv-x="565" d="M371 444h-174l-52 1018h277zM133 125q0 74 39 112.5t111 38.5q71 0 109 -40t38 -111t-38.5 -112.5t-108.5 -41.5q-71 0 -110.5 40t-39.5 114z" />
<glyph unicode="&#x22;" horiz-adv-x="893" d="M365 1462l-41 -528h-150l-41 528h232zM760 1462l-41 -528h-150l-41 528h232z" />
<glyph unicode="#" horiz-adv-x="1323" d="M989 870l-55 -284h270v-168h-303l-80 -418h-178l80 418h-248l-80 -418h-174l76 418h-250v168h283l57 284h-264v168h293l80 422h180l-80 -422h252l80 422h174l-80 -422h252v-168h-285zM506 586h250l57 284h-250z" />
<glyph unicode="$" d="M1063 453q0 -145 -106 -239t-306 -116v-217h-133v211q-248 4 -407 76v211q86 -42 201 -70.5t206 -29.5v374l-84 31q-164 63 -239.5 150.5t-75.5 216.5q0 138 107.5 227t291.5 108v168h133v-165q203 -7 385 -82l-73 -183q-157 62 -312 74v-364l76 -29q190 -73 263 -154 t73 -198zM827 438q0 58 -40.5 95.5t-135.5 72.5v-319q176 27 176 151zM354 1053q0 -57 35.5 -95t128.5 -75v311q-80 -12 -122 -49t-42 -92z" />
<glyph unicode="%" horiz-adv-x="1765" d="M279 1024q0 -149 29 -222t95 -73q132 0 132 295t-132 295q-66 0 -95 -73t-29 -222zM729 1026q0 -230 -82.5 -345.5t-243.5 -115.5q-152 0 -235.5 119.5t-83.5 341.5q0 457 319 457q157 0 241.5 -118.5t84.5 -338.5zM1231 440q0 -149 29.5 -223t95.5 -74q131 0 131 297 q0 293 -131 293q-66 0 -95.5 -72t-29.5 -221zM1681 440q0 -230 -83 -345t-242 -115q-152 0 -236 118.5t-84 341.5q0 457 320 457q154 0 239.5 -118t85.5 -339zM1384 1462l-811 -1462h-194l811 1462h194z" />
<glyph unicode="&#x26;" horiz-adv-x="1516" d="M451 1147q0 -63 33.5 -119t93.5 -119q113 64 158.5 119.5t45.5 124.5q0 65 -43.5 104t-115.5 39q-79 0 -125.5 -40.5t-46.5 -108.5zM600 182q183 0 313 107l-383 377q-106 -68 -146 -127.5t-40 -135.5q0 -98 69.5 -159.5t186.5 -61.5zM96 387q0 131 64 228.5t231 193.5 q-95 111 -129.5 187.5t-34.5 158.5q0 152 108.5 240t291.5 88q177 0 278 -85.5t101 -230.5q0 -114 -67.5 -207t-225.5 -186l346 -334q81 107 135 314h242q-70 -284 -224 -463l301 -291h-303l-149 145q-102 -82 -217.5 -123.5t-255.5 -41.5q-230 0 -361 109t-131 298z" />
<glyph unicode="'" horiz-adv-x="498" d="M365 1462l-41 -528h-150l-41 528h232z" />
<glyph unicode="(" horiz-adv-x="649" d="M82 561q0 265 77.5 496t223.5 405h205q-139 -188 -213 -421.5t-74 -477.5t74 -473t211 -414h-203q-147 170 -224 397t-77 488z" />
<glyph unicode=")" horiz-adv-x="649" d="M567 561q0 -263 -77.5 -490t-223.5 -395h-203q138 187 211.5 415t73.5 472q0 245 -74 477.5t-213 421.5h205q147 -175 224 -406.5t77 -494.5z" />
<glyph unicode="*" horiz-adv-x="1122" d="M672 1556l-41 -382l385 108l28 -217l-360 -29l236 -311l-199 -107l-166 338l-149 -338l-205 107l231 311l-358 29l35 217l376 -108l-41 382h228z" />
<glyph unicode="+" d="M494 633h-398v178h398v408h180v-408h399v-178h-399v-406h-180v406z" />
<glyph unicode="," horiz-adv-x="547" d="M412 215q-48 -186 -176 -479h-173q69 270 103 502h231z" />
<glyph unicode="-" horiz-adv-x="659" d="M72 449v200h514v-200h-514z" />
<glyph unicode="." horiz-adv-x="563" d="M133 125q0 73 38 112t110 39q73 0 111 -40.5t38 -110.5q0 -71 -38.5 -112.5t-110.5 -41.5t-110 41t-38 113z" />
<glyph unicode="/" horiz-adv-x="799" d="M782 1462l-544 -1462h-222l545 1462h221z" />
<glyph unicode="0" d="M1081 731q0 -381 -122.5 -566t-374.5 -185q-244 0 -370 191t-126 560q0 387 122.5 570.5t373.5 183.5q245 0 371 -192t126 -562zM326 731q0 -299 61.5 -427t196.5 -128t197.5 130t62.5 425q0 294 -62.5 425.5t-197.5 131.5t-196.5 -129t-61.5 -428z" />
<glyph unicode="1" d="M780 0h-235v944q0 169 8 268q-23 -24 -56.5 -53t-224.5 -184l-118 149l430 338h196v-1462z" />
<glyph unicode="2" d="M1081 0h-991v178l377 379q167 171 221.5 242.5t79.5 134.5t25 135q0 99 -59.5 156t-164.5 57q-84 0 -162.5 -31t-181.5 -112l-127 155q122 103 237 146t245 43q204 0 327 -106.5t123 -286.5q0 -99 -35.5 -188t-109 -183.5t-244.5 -255.5l-254 -246v-10h694v-207z" />
<glyph unicode="3" d="M1026 1126q0 -139 -81 -231.5t-228 -124.5v-8q176 -22 264 -109.5t88 -232.5q0 -211 -149 -325.5t-424 -114.5q-243 0 -410 79v209q93 -46 197 -71t200 -25q170 0 254 63t84 195q0 117 -93 172t-292 55h-127v191h129q350 0 350 242q0 94 -61 145t-180 51 q-83 0 -160 -23.5t-182 -91.5l-115 164q201 148 467 148q221 0 345 -95t124 -262z" />
<glyph unicode="4" d="M1133 319h-197v-319h-229v319h-668v181l668 966h229v-952h197v-195zM707 514v367q0 196 10 321h-8q-28 -66 -88 -160l-363 -528h449z" />
<glyph unicode="5" d="M586 913q221 0 350 -117t129 -319q0 -234 -146.5 -365.5t-416.5 -131.5q-245 0 -385 79v213q81 -46 186 -71t195 -25q159 0 242 71t83 208q0 262 -334 262q-47 0 -116 -9.5t-121 -21.5l-105 62l56 714h760v-209h-553l-33 -362q35 6 85.5 14t123.5 8z" />
<glyph unicode="6" d="M94 623q0 858 699 858q110 0 186 -17v-196q-76 22 -176 22q-235 0 -353 -126t-128 -404h12q47 81 132 125.5t200 44.5q199 0 310 -122t111 -331q0 -230 -128.5 -363.5t-350.5 -133.5q-157 0 -273 75.5t-178.5 220t-62.5 347.5zM604 174q121 0 186.5 78t65.5 223 q0 126 -61.5 198t-184.5 72q-76 0 -140 -32.5t-101 -89t-37 -115.5q0 -141 76.5 -237.5t195.5 -96.5z" />
<glyph unicode="7" d="M256 0l578 1253h-760v207h1011v-164l-575 -1296h-254z" />
<glyph unicode="8" d="M584 1481q208 0 329 -95.5t121 -255.5q0 -225 -270 -358q172 -86 244.5 -181t72.5 -212q0 -181 -133 -290t-360 -109q-238 0 -369 102t-131 289q0 122 68.5 219.5t224.5 173.5q-134 80 -191 169t-57 200q0 159 125 253.5t326 94.5zM313 379q0 -104 73 -161.5t198 -57.5 q129 0 200.5 59.5t71.5 161.5q0 81 -66 148t-200 124l-29 13q-132 -58 -190 -127.5t-58 -159.5zM582 1300q-100 0 -161 -49.5t-61 -134.5q0 -52 22 -93t64 -74.5t142 -80.5q120 53 169.5 111.5t49.5 136.5q0 85 -61.5 134.5t-163.5 49.5z" />
<glyph unicode="9" d="M1079 838q0 -432 -174 -645t-524 -213q-133 0 -191 16v197q89 -25 179 -25q238 0 355 128t128 402h-12q-59 -90 -142.5 -130t-195.5 -40q-194 0 -305 121t-111 332q0 229 128.5 364.5t350.5 135.5q156 0 272 -76t179 -220.5t63 -346.5zM569 1286q-122 0 -187 -79.5 t-65 -223.5q0 -125 60.5 -196.5t183.5 -71.5q119 0 200 71t81 166q0 89 -34.5 166.5t-96.5 122.5t-142 45z" />
<glyph unicode=":" horiz-adv-x="563" d="M133 125q0 73 38 112t110 39q73 0 111 -40.5t38 -110.5q0 -71 -38.5 -112.5t-110.5 -41.5t-110 41t-38 113zM133 979q0 151 148 151q75 0 112 -40t37 -111t-38.5 -112.5t-110.5 -41.5t-110 41t-38 113z" />
<glyph unicode=";" horiz-adv-x="569" d="M397 238l15 -23q-48 -186 -176 -479h-173q69 270 103 502h231zM131 979q0 151 148 151q75 0 112 -40t37 -111t-38.5 -112.5t-110.5 -41.5t-110 41t-38 113z" />
<glyph unicode="&#x3c;" d="M1073 221l-977 430v121l977 488v-195l-733 -344l733 -303v-197z" />
<glyph unicode="=" d="M102 831v179h963v-179h-963zM102 432v178h963v-178h-963z" />
<glyph unicode="&#x3e;" d="M96 418l733 303l-733 344v195l977 -488v-121l-977 -430v197z" />
<glyph unicode="?" horiz-adv-x="928" d="M283 444v64q0 110 40 183t140 151q119 94 153.5 146t34.5 124q0 84 -56 129t-161 45q-95 0 -176 -27t-158 -65l-84 176q203 113 435 113q196 0 311 -96t115 -265q0 -75 -22 -133.5t-66.5 -111.5t-153.5 -138q-93 -73 -124.5 -121t-31.5 -129v-45h-196zM242 125 q0 151 147 151q72 0 110 -39.5t38 -111.5q0 -71 -38.5 -112.5t-109.5 -41.5t-109 40.5t-38 113.5z" />
<glyph unicode="@" horiz-adv-x="1839" d="M1726 739q0 -143 -45 -261.5t-126.5 -184.5t-188.5 -66q-79 0 -137 42t-78 114h-12q-49 -78 -121 -117t-162 -39q-163 0 -256.5 105t-93.5 284q0 206 124 334.5t333 128.5q76 0 168.5 -13.5t164.5 -37.5l-22 -465v-24q0 -160 104 -160q79 0 125.5 102t46.5 260 q0 171 -70 300.5t-199 199.5t-296 70q-213 0 -370.5 -88t-240.5 -251.5t-83 -379.5q0 -290 155 -446t445 -156q221 0 461 90v-164q-210 -86 -457 -86q-370 0 -577 199.5t-207 556.5q0 261 112 464.5t310.5 311.5t449.5 108q217 0 386.5 -90t263 -256.5t93.5 -384.5zM698 612 q0 -233 183 -233q193 0 211 293l12 239q-63 17 -135 17q-128 0 -199.5 -85t-71.5 -231z" />
<glyph unicode="A" horiz-adv-x="1354" d="M1100 0l-146 406h-559l-143 -406h-252l547 1468h260l547 -1468h-254zM891 612l-137 398q-15 40 -41.5 126t-36.5 126q-27 -123 -79 -269l-132 -381h426z" />
<glyph unicode="B" horiz-adv-x="1352" d="M193 1462h434q302 0 436.5 -88t134.5 -278q0 -128 -66 -213t-190 -107v-10q154 -29 226.5 -114.5t72.5 -231.5q0 -197 -137.5 -308.5t-382.5 -111.5h-528v1462zM432 858h230q150 0 219 47.5t69 161.5q0 103 -74.5 149t-236.5 46h-207v-404zM432 664v-463h254 q150 0 226.5 57.5t76.5 181.5q0 114 -78 169t-237 55h-242z" />
<glyph unicode="C" horiz-adv-x="1298" d="M815 1278q-206 0 -324 -146t-118 -403q0 -269 113.5 -407t328.5 -138q93 0 180 18.5t181 47.5v-205q-172 -65 -390 -65q-321 0 -493 194.5t-172 556.5q0 228 83.5 399t241.5 262t371 91q224 0 414 -94l-86 -199q-74 35 -156.5 61.5t-173.5 26.5z" />
<glyph unicode="D" horiz-adv-x="1503" d="M1382 745q0 -362 -201 -553.5t-579 -191.5h-409v1462h452q349 0 543 -188t194 -529zM1130 737q0 525 -491 525h-207v-1061h170q528 0 528 536z" />
<glyph unicode="E" horiz-adv-x="1143" d="M1020 0h-827v1462h827v-202h-588v-398h551v-200h-551v-459h588v-203z" />
<glyph unicode="F" horiz-adv-x="1090" d="M430 0h-237v1462h825v-202h-588v-457h551v-203h-551v-600z" />
<glyph unicode="G" horiz-adv-x="1487" d="M791 793h538v-734q-132 -43 -253.5 -61t-262.5 -18q-332 0 -512 196.5t-180 554.5q0 353 203 552.5t559 199.5q229 0 434 -88l-84 -199q-178 82 -356 82q-234 0 -370 -147t-136 -402q0 -268 122.5 -407.5t352.5 -139.5q116 0 248 29v377h-303v205z" />
<glyph unicode="H" horiz-adv-x="1538" d="M1346 0h-240v659h-674v-659h-239v1462h239v-598h674v598h240v-1462z" />
<glyph unicode="I" horiz-adv-x="625" d="M193 0v1462h239v-1462h-239z" />
<glyph unicode="J" horiz-adv-x="612" d="M8 -408q-98 0 -164 25v201q84 -21 146 -21q196 0 196 248v1417h240v-1409q0 -224 -106.5 -342.5t-311.5 -118.5z" />
<glyph unicode="K" horiz-adv-x="1309" d="M1309 0h-277l-459 662l-141 -115v-547h-239v1462h239v-698q98 120 195 231l395 467h272q-383 -450 -549 -641z" />
<glyph unicode="L" horiz-adv-x="1110" d="M193 0v1462h239v-1257h619v-205h-858z" />
<glyph unicode="M" horiz-adv-x="1890" d="M825 0l-424 1221h-8q17 -272 17 -510v-711h-217v1462h337l406 -1163h6l418 1163h338v-1462h-230v723q0 109 5.5 284t9.5 212h-8l-439 -1219h-211z" />
<glyph unicode="N" horiz-adv-x="1604" d="M1411 0h-293l-719 1165h-8l5 -65q14 -186 14 -340v-760h-217v1462h290l717 -1159h6q-2 23 -8 167.5t-6 225.5v766h219v-1462z" />
<glyph unicode="O" horiz-adv-x="1612" d="M1491 733q0 -357 -178.5 -555t-505.5 -198q-331 0 -508.5 196.5t-177.5 558.5t178.5 556t509.5 194q326 0 504 -197t178 -555zM375 733q0 -270 109 -409.5t323 -139.5q213 0 321.5 138t108.5 411q0 269 -107.5 408t-320.5 139q-215 0 -324.5 -139t-109.5 -408z" />
<glyph unicode="P" horiz-adv-x="1260" d="M1161 1020q0 -229 -150 -351t-427 -122h-152v-547h-239v1462h421q274 0 410.5 -112t136.5 -330zM432 748h127q184 0 270 64t86 200q0 126 -77 188t-240 62h-166v-514z" />
<glyph unicode="Q" horiz-adv-x="1612" d="M1491 733q0 -266 -101.5 -448t-295.5 -256l350 -377h-322l-276 328h-39q-331 0 -508.5 196.5t-177.5 558.5t178.5 556t509.5 194q326 0 504 -197t178 -555zM375 733q0 -270 109 -409.5t323 -139.5q213 0 321.5 138t108.5 411q0 269 -107.5 408t-320.5 139 q-215 0 -324.5 -139t-109.5 -408z" />
<glyph unicode="R" horiz-adv-x="1309" d="M432 782h166q167 0 242 62t75 184q0 124 -81 178t-244 54h-158v-478zM432 584v-584h-239v1462h413q283 0 419 -106t136 -320q0 -273 -284 -389l413 -647h-272l-350 584h-236z" />
<glyph unicode="S" horiz-adv-x="1126" d="M1036 397q0 -195 -141 -306t-389 -111t-406 77v226q100 -47 212.5 -74t209.5 -27q142 0 209.5 54t67.5 145q0 82 -62 139t-256 135q-200 81 -282 185t-82 250q0 183 130 288t349 105q210 0 418 -92l-76 -195q-195 82 -348 82q-116 0 -176 -50.5t-60 -133.5 q0 -57 24 -97.5t79 -76.5t198 -95q161 -67 236 -125t110 -131t35 -172z" />
<glyph unicode="T" horiz-adv-x="1159" d="M698 0h-239v1257h-430v205h1099v-205h-430v-1257z" />
<glyph unicode="U" horiz-adv-x="1520" d="M1339 1462v-946q0 -162 -69.5 -283.5t-201 -187t-314.5 -65.5q-272 0 -423 144t-151 396v942h240v-925q0 -181 84 -267t258 -86q338 0 338 355v923h239z" />
<glyph unicode="V" horiz-adv-x="1274" d="M1026 1462h248l-512 -1462h-252l-510 1462h246l305 -909q24 -65 51 -167.5t35 -152.5q13 76 40 176t44 148z" />
<glyph unicode="W" horiz-adv-x="1937" d="M1542 0h-260l-248 872q-16 57 -40 164.5t-29 149.5q-10 -64 -32.5 -166t-37.5 -152l-242 -868h-260l-189 732l-192 730h244l209 -852q49 -205 70 -362q11 85 33 190t40 170l238 854h237l244 -858q35 -119 74 -356q15 143 72 364l208 850h242z" />
<glyph unicode="X" horiz-adv-x="1274" d="M1270 0h-275l-366 598l-369 -598h-256l485 758l-454 704h266l338 -553l338 553h258l-457 -708z" />
<glyph unicode="Y" horiz-adv-x="1212" d="M606 795l346 667h260l-487 -895v-567h-240v559l-485 903h260z" />
<glyph unicode="Z" horiz-adv-x="1178" d="M1112 0h-1046v166l737 1091h-717v205h1006v-168l-740 -1089h760v-205z" />
<glyph unicode="[" horiz-adv-x="676" d="M625 -324h-471v1786h471v-176h-256v-1433h256v-177z" />
<glyph unicode="\" horiz-adv-x="799" d="M238 1462l544 -1462h-221l-545 1462h222z" />
<glyph unicode="]" horiz-adv-x="676" d="M51 -147h256v1433h-256v176h469v-1786h-469v177z" />
<glyph unicode="^" horiz-adv-x="1100" d="M29 535l436 935h121l485 -935h-194l-349 694l-307 -694h-192z" />
<glyph unicode="_" horiz-adv-x="879" d="M883 -319h-887v135h887v-135z" />
<glyph unicode="`" horiz-adv-x="1212" d="M690 1241q-69 52 -174.5 150.5t-153.5 156.5v21h273q38 -70 103.5 -161t109.5 -142v-25h-158z" />
<glyph unicode="a" horiz-adv-x="1188" d="M860 0l-47 154h-8q-80 -101 -161 -137.5t-208 -36.5q-163 0 -254.5 88t-91.5 249q0 171 127 258t387 95l191 6v59q0 106 -49.5 158.5t-153.5 52.5q-85 0 -163 -25t-150 -59l-76 168q90 47 197 71.5t202 24.5q211 0 318.5 -92t107.5 -289v-745h-168zM510 160 q128 0 205.5 71.5t77.5 200.5v96l-142 -6q-166 -6 -241.5 -55.5t-75.5 -151.5q0 -74 44 -114.5t132 -40.5z" />
<glyph unicode="b" horiz-adv-x="1276" d="M733 1126q207 0 322.5 -150t115.5 -421q0 -272 -117 -423.5t-325 -151.5q-210 0 -326 151h-16l-43 -131h-176v1556h235v-370q0 -41 -4 -122t-6 -103h10q112 165 330 165zM672 934q-142 0 -204.5 -83.5t-64.5 -279.5v-16q0 -202 64 -292.5t209 -90.5q125 0 189.5 99 t64.5 286q0 377 -258 377z" />
<glyph unicode="c" horiz-adv-x="1014" d="M614 -20q-251 0 -381.5 146.5t-130.5 420.5q0 279 136.5 429t394.5 150q175 0 315 -65l-71 -189q-149 58 -246 58q-287 0 -287 -381q0 -186 71.5 -279.5t209.5 -93.5q157 0 297 78v-205q-63 -37 -134.5 -53t-173.5 -16z" />
<glyph unicode="d" horiz-adv-x="1276" d="M541 -20q-207 0 -323 150t-116 421q0 272 117.5 423.5t325.5 151.5q218 0 332 -161h12q-17 119 -17 188v403h236v-1556h-184l-41 145h-11q-113 -165 -331 -165zM604 170q145 0 211 81.5t68 264.5v33q0 209 -68 297t-213 88q-124 0 -191 -100.5t-67 -286.5 q0 -184 65 -280.5t195 -96.5z" />
<glyph unicode="e" horiz-adv-x="1180" d="M651 -20q-258 0 -403.5 150.5t-145.5 414.5q0 271 135 426t371 155q219 0 346 -133t127 -366v-127h-737q5 -161 87 -247.5t231 -86.5q98 0 182.5 18.5t181.5 61.5v-191q-86 -41 -174 -58t-201 -17zM608 948q-112 0 -179.5 -71t-80.5 -207h502q-2 137 -66 207.5t-176 70.5 z" />
<glyph unicode="f" horiz-adv-x="743" d="M723 928h-270v-928h-236v928h-182v110l182 72v72q0 196 92 290.5t281 94.5q124 0 244 -41l-62 -178q-87 28 -166 28q-80 0 -116.5 -49.5t-36.5 -148.5v-72h270v-178z" />
<glyph unicode="g" horiz-adv-x="1139" d="M1102 1106v-129l-189 -35q26 -35 43 -86t17 -108q0 -171 -118 -269t-325 -98q-53 0 -96 8q-76 -47 -76 -110q0 -38 35.5 -57t130.5 -19h193q183 0 278 -78t95 -225q0 -188 -155 -290t-448 -102q-226 0 -345 80t-119 228q0 102 64.5 171.5t180.5 96.5q-47 20 -77.5 64.5 t-30.5 93.5q0 62 35 105t104 85q-86 37 -139.5 120.5t-53.5 195.5q0 180 113.5 279t323.5 99q47 0 98.5 -6.5t77.5 -13.5h383zM233 -172q0 -76 68.5 -117t192.5 -41q192 0 286 55t94 146q0 72 -51.5 102.5t-191.5 30.5h-178q-101 0 -160.5 -47.5t-59.5 -128.5zM334 748 q0 -104 53.5 -160t153.5 -56q204 0 204 218q0 108 -50.5 166.5t-153.5 58.5q-102 0 -154.5 -58t-52.5 -169z" />
<glyph unicode="h" horiz-adv-x="1300" d="M1141 0h-236v680q0 128 -51.5 191t-163.5 63q-148 0 -217.5 -88.5t-69.5 -296.5v-549h-235v1556h235v-395q0 -95 -12 -203h15q48 80 133.5 124t199.5 44q402 0 402 -405v-721z" />
<glyph unicode="i" horiz-adv-x="571" d="M403 0h-235v1106h235v-1106zM154 1399q0 63 34.5 97t98.5 34q62 0 96.5 -34t34.5 -97q0 -60 -34.5 -94.5t-96.5 -34.5q-64 0 -98.5 34.5t-34.5 94.5z" />
<glyph unicode="j" horiz-adv-x="571" d="M55 -492q-106 0 -176 25v186q68 -18 139 -18q150 0 150 170v1235h235v-1251q0 -171 -89.5 -259t-258.5 -88zM154 1399q0 63 34.5 97t98.5 34q62 0 96.5 -34t34.5 -97q0 -60 -34.5 -94.5t-96.5 -34.5q-64 0 -98.5 34.5t-34.5 94.5z" />
<glyph unicode="k" horiz-adv-x="1171" d="M395 584l133 166l334 356h271l-445 -475l473 -631h-276l-355 485l-129 -106v-379h-233v1556h233v-759l-12 -213h6z" />
<glyph unicode="l" horiz-adv-x="571" d="M403 0h-235v1556h235v-1556z" />
<glyph unicode="m" horiz-adv-x="1958" d="M1100 0h-236v682q0 127 -48 189.5t-150 62.5q-136 0 -199.5 -88.5t-63.5 -294.5v-551h-235v1106h184l33 -145h12q46 79 133.5 122t192.5 43q255 0 338 -174h16q49 82 138 128t204 46q198 0 288.5 -100t90.5 -305v-721h-235v682q0 127 -48.5 189.5t-150.5 62.5 q-137 0 -200.5 -85.5t-63.5 -262.5v-586z" />
<glyph unicode="n" horiz-adv-x="1300" d="M1141 0h-236v680q0 128 -51.5 191t-163.5 63q-149 0 -218 -88t-69 -295v-551h-235v1106h184l33 -145h12q50 79 142 122t204 43q398 0 398 -405v-721z" />
<glyph unicode="o" horiz-adv-x="1251" d="M1149 555q0 -271 -139 -423t-387 -152q-155 0 -274 70t-183 201t-64 304q0 269 138 420t389 151q240 0 380 -154.5t140 -416.5zM344 555q0 -383 283 -383q280 0 280 383q0 379 -282 379q-148 0 -214.5 -98t-66.5 -281z" />
<glyph unicode="p" horiz-adv-x="1276" d="M729 -20q-210 0 -326 151h-14q14 -140 14 -170v-453h-235v1598h190q8 -31 33 -148h12q110 168 330 168q207 0 322.5 -150t115.5 -421t-117.5 -423t-324.5 -152zM672 934q-140 0 -204.5 -82t-64.5 -262v-35q0 -202 64 -292.5t209 -90.5q122 0 188 100t66 285 q0 186 -65.5 281.5t-192.5 95.5z" />
<glyph unicode="q" horiz-adv-x="1276" d="M606 168q148 0 212.5 85.5t64.5 258.5v37q0 205 -66.5 295t-214.5 90q-126 0 -192 -100t-66 -287q0 -379 262 -379zM539 -20q-205 0 -321 150.5t-116 420.5t118 422.5t325 152.5q104 0 186.5 -38.5t147.5 -126.5h8l26 145h195v-1598h-236v469q0 44 4 93t7 75h-13 q-104 -165 -331 -165z" />
<glyph unicode="r" horiz-adv-x="883" d="M729 1126q71 0 117 -10l-23 -219q-50 12 -104 12q-141 0 -228.5 -92t-87.5 -239v-578h-235v1106h184l31 -195h12q55 99 143.5 157t190.5 58z" />
<glyph unicode="s" horiz-adv-x="997" d="M911 315q0 -162 -118 -248.5t-338 -86.5q-221 0 -355 67v203q195 -90 363 -90q217 0 217 131q0 42 -24 70t-79 58t-153 68q-191 74 -258.5 148t-67.5 192q0 142 114.5 220.5t311.5 78.5q195 0 369 -79l-76 -177q-179 74 -301 74q-186 0 -186 -106q0 -52 48.5 -88 t211.5 -99q137 -53 199 -97t92 -101.5t30 -137.5z" />
<glyph unicode="t" horiz-adv-x="805" d="M580 170q86 0 172 27v-177q-39 -17 -100.5 -28.5t-127.5 -11.5q-334 0 -334 352v596h-151v104l162 86l80 234h145v-246h315v-178h-315v-592q0 -85 42.5 -125.5t111.5 -40.5z" />
<glyph unicode="u" horiz-adv-x="1300" d="M948 0l-33 145h-12q-49 -77 -139.5 -121t-206.5 -44q-201 0 -300 100t-99 303v723h237v-682q0 -127 52 -190.5t163 -63.5q148 0 217.5 88.5t69.5 296.5v551h236v-1106h-185z" />
<glyph unicode="v" horiz-adv-x="1096" d="M420 0l-420 1106h248l225 -643q58 -162 70 -262h8q9 72 70 262l225 643h250l-422 -1106h-254z" />
<glyph unicode="w" horiz-adv-x="1673" d="M1075 0l-143 516q-26 82 -94 381h-9q-58 -270 -92 -383l-147 -514h-260l-310 1106h240l141 -545q48 -202 68 -346h6q10 73 30.5 167.5t35.5 141.5l168 582h258l163 -582q15 -49 37.5 -150t26.5 -157h8q15 123 70 344l143 545h236l-312 -1106h-264z" />
<glyph unicode="x" horiz-adv-x="1128" d="M414 565l-371 541h268l252 -387l254 387h266l-372 -541l391 -565h-266l-273 414l-272 -414h-266z" />
<glyph unicode="y" horiz-adv-x="1098" d="M0 1106h256l225 -627q51 -134 68 -252h8q9 55 33 133.5t254 745.5h254l-473 -1253q-129 -345 -430 -345q-78 0 -152 17v186q53 -12 121 -12q170 0 239 197l41 104z" />
<glyph unicode="z" horiz-adv-x="979" d="M907 0h-839v145l559 781h-525v180h789v-164l-547 -762h563v-180z" />
<glyph unicode="{" horiz-adv-x="791" d="M311 287q0 186 -266 186v191q135 0 200.5 45.5t65.5 138.5v311q0 156 108.5 229.5t325.5 73.5v-182q-114 -5 -165.5 -46.5t-51.5 -123.5v-297q0 -199 -229 -238v-12q229 -36 229 -237v-299q0 -82 51 -124t166 -44v-183q-231 2 -332.5 78.5t-101.5 247.5v285z" />
<glyph unicode="|" horiz-adv-x="1128" d="M473 1552h180v-2033h-180v2033z" />
<glyph unicode="}" horiz-adv-x="760" d="M463 -20q0 -156 -99.5 -229t-318.5 -75v183q95 1 148 38.5t53 129.5v262q0 121 53 187t176 87v12q-229 39 -229 238v297q0 82 -45.5 123.5t-155.5 46.5v182q223 0 320.5 -76.5t97.5 -250.5v-287q0 -100 63.5 -142t188.5 -42v-191q-123 0 -187.5 -42.5t-64.5 -143.5v-307z " />
<glyph unicode="~" d="M330 692q-50 0 -111.5 -30t-122.5 -91v191q99 108 250 108q66 0 125 -13t147 -50q131 -55 220 -55q52 0 114.5 31t120.5 89v-190q-105 -111 -250 -111q-65 0 -127.5 15.5t-146.5 50.5q-127 55 -219 55z" />
<glyph unicode="&#xa2;" d="M987 238q-119 -59 -258 -64v-194h-156v200q-207 31 -307 171t-100 390q0 254 100.5 397t306.5 175v170h158v-162q152 -5 283 -66l-70 -188q-146 59 -250 59q-146 0 -216 -95t-70 -288q0 -194 72 -283t210 -89q75 0 142.5 15t154.5 52v-200z" />
<glyph unicode="&#xa3;" d="M690 1481q194 0 375 -82l-76 -182q-162 71 -284 71q-205 0 -205 -219v-244h397v-172h-397v-182q0 -91 -33 -155t-113 -109h756v-207h-1038v195q98 30 145 96t47 178v184h-188v172h188v256q0 188 113.5 294t312.5 106z" />
<glyph unicode="&#xa5;" d="M584 797l321 665h244l-399 -760h227v-151h-281v-154h281v-153h-281v-244h-225v244h-283v153h283v154h-283v151h224l-394 760h246z" />
<glyph unicode="&#xa8;" horiz-adv-x="1212" d="M293 1399q0 62 33.5 89.5t81.5 27.5q53 0 84.5 -31t31.5 -86q0 -53 -32 -85t-84 -32q-48 0 -81.5 29t-33.5 88zM686 1399q0 62 33.5 89.5t81.5 27.5q53 0 85 -31t32 -86q0 -54 -33 -85.5t-84 -31.5q-48 0 -81.5 29t-33.5 88z" />
<glyph unicode="&#xa9;" horiz-adv-x="1704" d="M893 1034q-111 0 -171 -80.5t-60 -222.5q0 -147 54 -226t177 -79q55 0 118 15t109 36v-158q-115 -51 -235 -51q-197 0 -305.5 120.5t-108.5 342.5q0 214 110 337.5t306 123.5q138 0 274 -70l-65 -143q-106 55 -203 55zM100 731q0 200 100 375t275 276t377 101 q200 0 375 -100t276 -275t101 -377q0 -197 -97 -370t-272 -277t-383 -104q-207 0 -382 103.5t-272.5 276.5t-97.5 371zM223 731q0 -170 84.5 -315.5t230.5 -229.5t314 -84q170 0 316 85.5t229.5 230t83.5 313.5q0 168 -84.5 314.5t-231 230.5t-313.5 84q-168 0 -312.5 -83 t-230.5 -229t-86 -317z" />
<glyph unicode="&#xab;" horiz-adv-x="1139" d="M82 561l356 432l168 -94l-282 -350l282 -348l-168 -97l-356 431v26zM532 561l357 432l168 -94l-283 -350l283 -348l-168 -97l-357 431v26z" />
<glyph unicode="&#xad;" horiz-adv-x="659" d="M72 449v200h514v-200h-514z" />
<glyph unicode="&#xae;" horiz-adv-x="1704" d="M748 770h69q74 0 112 35t38 100q0 72 -36.5 100.5t-115.5 28.5h-67v-264zM1157 909q0 -171 -153 -233l237 -397h-211l-192 346h-90v-346h-189v903h262q174 0 255 -68t81 -205zM100 731q0 200 100 375t275 276t377 101q200 0 375 -100t276 -275t101 -377q0 -197 -97 -370 t-272 -277t-383 -104q-207 0 -382 103.5t-272.5 276.5t-97.5 371zM223 731q0 -170 84.5 -315.5t230.5 -229.5t314 -84q170 0 316 85.5t229.5 230t83.5 313.5q0 168 -84.5 314.5t-231 230.5t-313.5 84q-168 0 -312.5 -83t-230.5 -229t-86 -317z" />
<glyph unicode="&#xb4;" horiz-adv-x="1212" d="M362 1241v25q57 70 117.5 156t95.5 147h273v-21q-52 -61 -155.5 -157.5t-174.5 -149.5h-156z" />
<glyph unicode="&#xb8;" horiz-adv-x="442" d="M426 -270q0 -222 -305 -222q-66 0 -121 15v137q54 -14 123 -14q54 0 85.5 16.5t31.5 61.5q0 85 -179 110l84 166h152l-41 -88q80 -21 125 -68.5t45 -113.5z" />
<glyph unicode="&#xbb;" horiz-adv-x="1139" d="M1057 535l-359 -431l-168 97l283 348l-283 350l168 94l359 -432v-26zM606 535l-358 -431l-168 97l282 348l-282 350l168 94l358 -432v-26z" />
<glyph unicode="&#xc1;" horiz-adv-x="1354" d="M0 0zM1100 0l-146 406h-559l-143 -406h-252l547 1468h260l547 -1468h-254zM891 612l-137 398q-15 40 -41.5 126t-36.5 126q-27 -123 -79 -269l-132 -381h426zM532 1579v25q57 70 117.5 156t95.5 147h273v-21q-52 -61 -155.5 -157.5t-174.5 -149.5h-156z" />
<glyph unicode="&#xc9;" horiz-adv-x="1143" d="M193 0zM1020 0h-827v1462h827v-202h-588v-398h551v-200h-551v-459h588v-203zM440 1579v25q57 70 117.5 156t95.5 147h273v-21q-52 -61 -155.5 -157.5t-174.5 -149.5h-156z" />
<glyph unicode="&#xcd;" horiz-adv-x="625" d="M179 0zM193 0v1462h239v-1462h-239zM179 1579v25q57 70 117.5 156t95.5 147h273v-21q-52 -61 -155.5 -157.5t-174.5 -149.5h-156z" />
<glyph unicode="&#xd3;" horiz-adv-x="1612" d="M121 0zM1491 733q0 -357 -178.5 -555t-505.5 -198q-331 0 -508.5 196.5t-177.5 558.5t178.5 556t509.5 194q326 0 504 -197t178 -555zM375 733q0 -270 109 -409.5t323 -139.5q213 0 321.5 138t108.5 411q0 269 -107.5 408t-320.5 139q-215 0 -324.5 -139t-109.5 -408z M657 1579v25q57 70 117.5 156t95.5 147h273v-21q-52 -61 -155.5 -157.5t-174.5 -149.5h-156z" />
<glyph unicode="&#xda;" horiz-adv-x="1520" d="M180 0zM1339 1462v-946q0 -162 -69.5 -283.5t-201 -187t-314.5 -65.5q-272 0 -423 144t-151 396v942h240v-925q0 -181 84 -267t258 -86q338 0 338 355v923h239zM600 1579v25q57 70 117.5 156t95.5 147h273v-21q-52 -61 -155.5 -157.5t-174.5 -149.5h-156z" />
<glyph unicode="&#xdd;" horiz-adv-x="1212" d="M0 0zM606 795l346 667h260l-487 -895v-567h-240v559l-485 903h260zM450 1579v25q57 70 117.5 156t95.5 147h273v-21q-52 -61 -155.5 -157.5t-174.5 -149.5h-156z" />
<glyph unicode="&#xe1;" horiz-adv-x="1188" d="M90 0zM860 0l-47 154h-8q-80 -101 -161 -137.5t-208 -36.5q-163 0 -254.5 88t-91.5 249q0 171 127 258t387 95l191 6v59q0 106 -49.5 158.5t-153.5 52.5q-85 0 -163 -25t-150 -59l-76 168q90 47 197 71.5t202 24.5q211 0 318.5 -92t107.5 -289v-745h-168zM510 160 q128 0 205.5 71.5t77.5 200.5v96l-142 -6q-166 -6 -241.5 -55.5t-75.5 -151.5q0 -74 44 -114.5t132 -40.5zM438 1241v25q57 70 117.5 156t95.5 147h273v-21q-52 -61 -155.5 -157.5t-174.5 -149.5h-156z" />
<glyph unicode="&#xe9;" horiz-adv-x="1180" d="M102 0zM651 -20q-258 0 -403.5 150.5t-145.5 414.5q0 271 135 426t371 155q219 0 346 -133t127 -366v-127h-737q5 -161 87 -247.5t231 -86.5q98 0 182.5 18.5t181.5 61.5v-191q-86 -41 -174 -58t-201 -17zM608 948q-112 0 -179.5 -71t-80.5 -207h502q-2 137 -66 207.5 t-176 70.5zM458 1241v25q57 70 117.5 156t95.5 147h273v-21q-52 -61 -155.5 -157.5t-174.5 -149.5h-156z" />
<glyph unicode="&#xed;" horiz-adv-x="571" d="M156 0zM403 0h-235v1106h235v-1106zM156 1241v25q57 70 117.5 156t95.5 147h273v-21q-52 -61 -155.5 -157.5t-174.5 -149.5h-156z" />
<glyph unicode="&#xf3;" horiz-adv-x="1251" d="M102 0zM1149 555q0 -271 -139 -423t-387 -152q-155 0 -274 70t-183 201t-64 304q0 269 138 420t389 151q240 0 380 -154.5t140 -416.5zM344 555q0 -383 283 -383q280 0 280 383q0 379 -282 379q-148 0 -214.5 -98t-66.5 -281zM473 1241v25q57 70 117.5 156t95.5 147h273 v-21q-52 -61 -155.5 -157.5t-174.5 -149.5h-156z" />
<glyph unicode="&#xfa;" horiz-adv-x="1300" d="M158 0zM948 0l-33 145h-12q-49 -77 -139.5 -121t-206.5 -44q-201 0 -300 100t-99 303v723h237v-682q0 -127 52 -190.5t163 -63.5q148 0 217.5 88.5t69.5 296.5v551h236v-1106h-185zM501 1241v25q57 70 117.5 156t95.5 147h273v-21q-52 -61 -155.5 -157.5t-174.5 -149.5 h-156z" />
<glyph unicode="&#xfd;" horiz-adv-x="1098" d="M0 0zM0 1106h256l225 -627q51 -134 68 -252h8q9 55 33 133.5t254 745.5h254l-473 -1253q-129 -345 -430 -345q-78 0 -152 17v186q53 -12 121 -12q170 0 239 197l41 104zM401 1241v25q57 70 117.5 156t95.5 147h273v-21q-52 -61 -155.5 -157.5t-174.5 -149.5h-156z" />
<glyph unicode="&#x10c;" horiz-adv-x="1298" d="M121 0zM815 1278q-206 0 -324 -146t-118 -403q0 -269 113.5 -407t328.5 -138q93 0 180 18.5t181 47.5v-205q-172 -65 -390 -65q-321 0 -493 194.5t-172 556.5q0 228 83.5 399t241.5 262t371 91q224 0 414 -94l-86 -199q-74 35 -156.5 61.5t-173.5 26.5zM1179 1907v-27 q-126 -131 -177.5 -193t-78.5 -108h-260q-65 105 -254 301v27h158q138 -90 225 -183q97 100 228 183h159z" />
<glyph unicode="&#x10d;" horiz-adv-x="1014" d="M102 0zM614 -20q-251 0 -381.5 146.5t-130.5 420.5q0 279 136.5 429t394.5 150q175 0 315 -65l-71 -189q-149 58 -246 58q-287 0 -287 -381q0 -186 71.5 -279.5t209.5 -93.5q157 0 297 78v-205q-63 -37 -134.5 -53t-173.5 -16zM992 1569v-27q-126 -131 -177.5 -193 t-78.5 -108h-260q-65 105 -254 301v27h158q138 -90 225 -183q97 100 228 183h159z" />
<glyph unicode="&#x10e;" horiz-adv-x="1503" d="M193 0zM1382 745q0 -362 -201 -553.5t-579 -191.5h-409v1462h452q349 0 543 -188t194 -529zM1130 737q0 525 -491 525h-207v-1061h170q528 0 528 536zM1093 1907v-27q-126 -131 -177.5 -193t-78.5 -108h-260q-65 105 -254 301v27h158q138 -90 225 -183q97 100 228 183 h159z" />
<glyph unicode="&#x10f;" horiz-adv-x="1276" d="M102 0zM541 -20q-207 0 -323 150t-116 421q0 272 117.5 423.5t325.5 151.5q218 0 332 -161h12q-17 119 -17 188v403h236v-1556h-184l-41 145h-11q-113 -165 -331 -165zM604 170q145 0 211 81.5t68 264.5v33q0 209 -68 297t-213 88q-124 0 -191 -100.5t-67 -286.5 q0 -184 65 -280.5t195 -96.5zM1200 1253q47 158 65 303h226v-20q-23 -62 -68 -151.5t-88 -155.5h-135v24z" />
<glyph unicode="&#x11a;" horiz-adv-x="1143" d="M193 0zM1020 0h-827v1462h827v-202h-588v-398h551v-200h-551v-459h588v-203zM999 1907v-27q-126 -131 -177.5 -193t-78.5 -108h-260q-65 105 -254 301v27h158q138 -90 225 -183q97 100 228 183h159z" />
<glyph unicode="&#x11b;" horiz-adv-x="1180" d="M102 0zM651 -20q-258 0 -403.5 150.5t-145.5 414.5q0 271 135 426t371 155q219 0 346 -133t127 -366v-127h-737q5 -161 87 -247.5t231 -86.5q98 0 182.5 18.5t181.5 61.5v-191q-86 -41 -174 -58t-201 -17zM608 948q-112 0 -179.5 -71t-80.5 -207h502q-2 137 -66 207.5 t-176 70.5zM996 1569v-27q-126 -131 -177.5 -193t-78.5 -108h-260q-65 105 -254 301v27h158q138 -90 225 -183q97 100 228 183h159z" />
<glyph unicode="&#x131;" horiz-adv-x="571" d="M403 0h-235v1106h235v-1106z" />
<glyph unicode="&#x147;" horiz-adv-x="1604" d="M193 0zM1411 0h-293l-719 1165h-8l5 -65q14 -186 14 -340v-760h-217v1462h290l717 -1159h6q-2 23 -8 167.5t-6 225.5v766h219v-1462zM1198 1907v-27q-126 -131 -177.5 -193t-78.5 -108h-260q-65 105 -254 301v27h158q138 -90 225 -183q97 100 228 183h159z" />
<glyph unicode="&#x148;" horiz-adv-x="1300" d="M168 0zM1141 0h-236v680q0 128 -51.5 191t-163.5 63q-149 0 -218 -88t-69 -295v-551h-235v1106h184l33 -145h12q50 79 142 122t204 43q398 0 398 -405v-721zM1050 1569v-27q-126 -131 -177.5 -193t-78.5 -108h-260q-65 105 -254 301v27h158q138 -90 225 -183 q97 100 228 183h159z" />
<glyph unicode="&#x158;" horiz-adv-x="1309" d="M193 0zM432 782h166q167 0 242 62t75 184q0 124 -81 178t-244 54h-158v-478zM432 584v-584h-239v1462h413q283 0 419 -106t136 -320q0 -273 -284 -389l413 -647h-272l-350 584h-236zM1036 1907v-27q-126 -131 -177.5 -193t-78.5 -108h-260q-65 105 -254 301v27h158 q138 -90 225 -183q97 100 228 183h159z" />
<glyph unicode="&#x159;" horiz-adv-x="883" d="M107 0zM729 1126q71 0 117 -10l-23 -219q-50 12 -104 12q-141 0 -228.5 -92t-87.5 -239v-578h-235v1106h184l31 -195h12q55 99 143.5 157t190.5 58zM877 1569v-27q-126 -131 -177.5 -193t-78.5 -108h-260q-65 105 -254 301v27h158q138 -90 225 -183q97 100 228 183h159z " />
<glyph unicode="&#x160;" horiz-adv-x="1126" d="M100 0zM1036 397q0 -195 -141 -306t-389 -111t-406 77v226q100 -47 212.5 -74t209.5 -27q142 0 209.5 54t67.5 145q0 82 -62 139t-256 135q-200 81 -282 185t-82 250q0 183 130 288t349 105q210 0 418 -92l-76 -195q-195 82 -348 82q-116 0 -176 -50.5t-60 -133.5 q0 -57 24 -97.5t79 -76.5t198 -95q161 -67 236 -125t110 -131t35 -172zM973 1907v-27q-126 -131 -177.5 -193t-78.5 -108h-260q-65 105 -254 301v27h158q138 -90 225 -183q97 100 228 183h159z" />
<glyph unicode="&#x161;" horiz-adv-x="997" d="M98 0zM911 315q0 -162 -118 -248.5t-338 -86.5q-221 0 -355 67v203q195 -90 363 -90q217 0 217 131q0 42 -24 70t-79 58t-153 68q-191 74 -258.5 148t-67.5 192q0 142 114.5 220.5t311.5 78.5q195 0 369 -79l-76 -177q-179 74 -301 74q-186 0 -186 -106q0 -52 48.5 -88 t211.5 -99q137 -53 199 -97t92 -101.5t30 -137.5zM904 1569v-27q-126 -131 -177.5 -193t-78.5 -108h-260q-65 105 -254 301v27h158q138 -90 225 -183q97 100 228 183h159z" />
<glyph unicode="&#x164;" horiz-adv-x="1159" d="M29 0zM698 0h-239v1257h-430v205h1099v-205h-430v-1257zM967 1907v-27q-126 -131 -177.5 -193t-78.5 -108h-260q-65 105 -254 301v27h158q138 -90 225 -183q97 100 228 183h159z" />
<glyph unicode="&#x165;" horiz-adv-x="805" d="M39 0zM580 170q86 0 172 27v-177q-39 -17 -100.5 -28.5t-127.5 -11.5q-334 0 -334 352v596h-151v104l162 86l80 234h145v-246h315v-178h-315v-592q0 -85 42.5 -125.5t111.5 -40.5zM555 1263q47 158 65 303h226v-20q-23 -62 -68 -151.5t-88 -155.5h-135v24z" />
<glyph unicode="&#x16e;" horiz-adv-x="1520" d="M180 0zM1339 1462v-946q0 -162 -69.5 -283.5t-201 -187t-314.5 -65.5q-272 0 -423 144t-151 396v942h240v-925q0 -181 84 -267t258 -86q338 0 338 355v923h239zM997 1806q0 -102 -65.5 -165.5t-173.5 -63.5t-172 62.5t-64 164.5q0 101 63.5 163.5t172.5 62.5 q104 0 171.5 -62t67.5 -162zM864 1804q0 50 -30 78.5t-76 28.5q-47 0 -77 -28.5t-30 -78.5q0 -106 107 -106q46 0 76 27.5t30 78.5z" />
<glyph unicode="&#x16f;" horiz-adv-x="1300" d="M158 0zM948 0l-33 145h-12q-49 -77 -139.5 -121t-206.5 -44q-201 0 -300 100t-99 303v723h237v-682q0 -127 52 -190.5t163 -63.5q148 0 217.5 88.5t69.5 296.5v551h236v-1106h-185zM882 1468q0 -102 -65.5 -165.5t-173.5 -63.5t-172 62.5t-64 164.5q0 101 63.5 163.5 t172.5 62.5q104 0 171.5 -62t67.5 -162zM749 1466q0 50 -30 78.5t-76 28.5q-47 0 -77 -28.5t-30 -78.5q0 -106 107 -106q46 0 76 27.5t30 78.5z" />
<glyph unicode="&#x17d;" horiz-adv-x="1178" d="M66 0zM1112 0h-1046v166l737 1091h-717v205h1006v-168l-740 -1089h760v-205zM980 1907v-27q-126 -131 -177.5 -193t-78.5 -108h-260q-65 105 -254 301v27h158q138 -90 225 -183q97 100 228 183h159z" />
<glyph unicode="&#x17e;" horiz-adv-x="979" d="M68 0zM907 0h-839v145l559 781h-525v180h789v-164l-547 -762h563v-180zM885 1569v-27q-126 -131 -177.5 -193t-78.5 -108h-260q-65 105 -254 301v27h158q138 -90 225 -183q97 100 228 183h159z" />
<glyph unicode="&#x2c6;" horiz-adv-x="1227" d="M838 1241q-123 73 -228 180q-103 -103 -225 -180h-158v25q191 198 254 303h260q63 -110 256 -303v-25h-159z" />
<glyph unicode="&#x2c7;" horiz-adv-x="1227" d="M997 1569v-27q-126 -131 -177.5 -193t-78.5 -108h-260q-65 105 -254 301v27h158q138 -90 225 -183q97 100 228 183h159z" />
<glyph unicode="&#x2da;" horiz-adv-x="1182" d="M827 1468q0 -102 -65.5 -165.5t-173.5 -63.5t-172 62.5t-64 164.5q0 101 63.5 163.5t172.5 62.5q104 0 171.5 -62t67.5 -162zM694 1466q0 50 -30 78.5t-76 28.5q-47 0 -77 -28.5t-30 -78.5q0 -106 107 -106q46 0 76 27.5t30 78.5z" />
<glyph unicode="&#x2dc;" horiz-adv-x="1227" d="M776 1241q-42 0 -82.5 17.5t-79.5 39t-76 39t-71 17.5q-81 0 -109 -115h-122q12 139 77.5 212t167.5 73q43 0 84 -17.5t80 -39t75.5 -39t70.5 -17.5q79 0 106 115h125q-12 -134 -77 -209.5t-169 -75.5z" />
<glyph unicode="&#x2000;" horiz-adv-x="1015" />
<glyph unicode="&#x2001;" horiz-adv-x="2030" />
<glyph unicode="&#x2002;" horiz-adv-x="1015" />
<glyph unicode="&#x2003;" horiz-adv-x="2030" />
<glyph unicode="&#x2004;" horiz-adv-x="676" />
<glyph unicode="&#x2005;" horiz-adv-x="507" />
<glyph unicode="&#x2006;" horiz-adv-x="338" />
<glyph unicode="&#x2007;" horiz-adv-x="338" />
<glyph unicode="&#x2008;" horiz-adv-x="253" />
<glyph unicode="&#x2009;" horiz-adv-x="406" />
<glyph unicode="&#x200a;" horiz-adv-x="112" />
<glyph unicode="&#x2010;" horiz-adv-x="659" d="M72 449v200h514v-200h-514z" />
<glyph unicode="&#x2011;" horiz-adv-x="659" d="M72 449v200h514v-200h-514z" />
<glyph unicode="&#x2012;" horiz-adv-x="659" d="M72 449v200h514v-200h-514z" />
<glyph unicode="&#x2013;" horiz-adv-x="1024" d="M82 455v190h860v-190h-860z" />
<glyph unicode="&#x2014;" horiz-adv-x="2048" d="M82 455v190h1884v-190h-1884z" />
<glyph unicode="&#x2018;" horiz-adv-x="395" d="M37 961l-12 22q20 83 71 224t105 255h170q-64 -256 -101 -501h-233z" />
<glyph unicode="&#x2019;" horiz-adv-x="395" d="M356 1462l15 -22q-53 -209 -176 -479h-170q69 289 100 501h231z" />
<glyph unicode="&#x201a;" horiz-adv-x="549" d="M412 215q-48 -186 -176 -479h-173q69 270 103 502h231z" />
<glyph unicode="&#x201c;" horiz-adv-x="813" d="M440 983q53 203 178 479h170q-69 -296 -100 -501h-233zM25 983q20 83 71 224t105 255h170q-64 -256 -101 -501h-233z" />
<glyph unicode="&#x201d;" horiz-adv-x="813" d="M371 1440q-53 -209 -176 -479h-170q69 289 100 501h231zM788 1440q-53 -209 -176 -479h-172q69 271 103 501h231z" />
<glyph unicode="&#x201e;" horiz-adv-x="944" d="M391 215q-55 -214 -176 -479h-172q66 260 102 502h232zM809 215q-48 -186 -176 -479h-172q66 260 102 502h232z" />
<glyph unicode="&#x2026;" horiz-adv-x="1677" d="M133 125q0 73 38 112t110 39q73 0 111 -40.5t38 -110.5q0 -71 -38.5 -112.5t-110.5 -41.5t-110 41t-38 113zM690 125q0 73 38 112t110 39q73 0 111 -40.5t38 -110.5q0 -71 -38.5 -112.5t-110.5 -41.5t-110 41t-38 113zM1247 125q0 73 38 112t110 39q73 0 111 -40.5 t38 -110.5q0 -71 -38.5 -112.5t-110.5 -41.5t-110 41t-38 113z" />
<glyph unicode="&#x202f;" horiz-adv-x="406" />
<glyph unicode="&#x2039;" horiz-adv-x="688" d="M82 561l356 432l168 -94l-282 -350l282 -348l-168 -97l-356 431v26z" />
<glyph unicode="&#x203a;" horiz-adv-x="688" d="M606 535l-358 -431l-168 97l282 348l-282 350l168 94l358 -432v-26z" />
<glyph unicode="&#x205f;" horiz-adv-x="507" />
<glyph unicode="&#x20ac;" horiz-adv-x="1188" d="M799 1278q-141 0 -230.5 -84t-119.5 -254h456v-154h-471l-2 -45v-55l2 -39h408v-153h-391q64 -312 364 -312q143 0 293 62v-203q-131 -61 -305 -61q-241 0 -391.5 132t-196.5 382h-152v153h136l-2 37v37l2 65h-136v154h150q38 251 191 394t395 143q200 0 358 -88 l-84 -187q-154 76 -274 76z" />
<glyph unicode="&#x2122;" horiz-adv-x="1561" d="M375 741h-146v592h-202v129h553v-129h-205v-592zM963 741l-185 543h-6l4 -119v-424h-141v721h217l178 -534l187 534h210v-721h-147v414l4 129h-6l-193 -543h-122z" />
<glyph unicode="&#xe000;" horiz-adv-x="1105" d="M0 1105h1105v-1105h-1105v1105z" />
<glyph horiz-adv-x="1024" d="M371 1253q47 158 65 303h226v-20q-23 -62 -68 -151.5t-88 -155.5h-135v24z" />
<glyph horiz-adv-x="1276" d="M0 0z" />
<hkern u1="&#x22;" u2="&#x16f;" k="61" />
<hkern u1="&#x22;" u2="&#x164;" k="-41" />
<hkern u1="&#x22;" u2="&#x11b;" k="123" />
<hkern u1="&#x22;" u2="&#x10f;" k="123" />
<hkern u1="&#x22;" u2="&#x10d;" k="123" />
<hkern u1="&#x22;" u2="&#xfa;" k="61" />
<hkern u1="&#x22;" u2="&#xf3;" k="123" />
<hkern u1="&#x22;" u2="&#xe9;" k="123" />
<hkern u1="&#x22;" u2="&#xe1;" k="82" />
<hkern u1="&#x22;" u2="&#xdd;" k="-20" />
<hkern u1="&#x22;" u2="&#xc1;" k="143" />
<hkern u1="&#x22;" u2="u" k="61" />
<hkern u1="&#x22;" u2="s" k="61" />
<hkern u1="&#x22;" u2="r" k="61" />
<hkern u1="&#x22;" u2="q" k="123" />
<hkern u1="&#x22;" u2="p" k="61" />
<hkern u1="&#x22;" u2="o" k="123" />
<hkern u1="&#x22;" u2="n" k="61" />
<hkern u1="&#x22;" u2="m" k="61" />
<hkern u1="&#x22;" u2="g" k="61" />
<hkern u1="&#x22;" u2="e" k="123" />
<hkern u1="&#x22;" u2="d" k="123" />
<hkern u1="&#x22;" u2="c" k="123" />
<hkern u1="&#x22;" u2="a" k="82" />
<hkern u1="&#x22;" u2="Y" k="-20" />
<hkern u1="&#x22;" u2="W" k="-41" />
<hkern u1="&#x22;" u2="V" k="-41" />
<hkern u1="&#x22;" u2="T" k="-41" />
<hkern u1="&#x22;" u2="A" k="143" />
<hkern u1="&#x27;" u2="&#x16f;" k="61" />
<hkern u1="&#x27;" u2="&#x164;" k="-41" />
<hkern u1="&#x27;" u2="&#x11b;" k="123" />
<hkern u1="&#x27;" u2="&#x10f;" k="123" />
<hkern u1="&#x27;" u2="&#x10d;" k="123" />
<hkern u1="&#x27;" u2="&#xfa;" k="61" />
<hkern u1="&#x27;" u2="&#xf3;" k="123" />
<hkern u1="&#x27;" u2="&#xe9;" k="123" />
<hkern u1="&#x27;" u2="&#xe1;" k="82" />
<hkern u1="&#x27;" u2="&#xdd;" k="-20" />
<hkern u1="&#x27;" u2="&#xc1;" k="143" />
<hkern u1="&#x27;" u2="u" k="61" />
<hkern u1="&#x27;" u2="s" k="61" />
<hkern u1="&#x27;" u2="r" k="61" />
<hkern u1="&#x27;" u2="q" k="123" />
<hkern u1="&#x27;" u2="p" k="61" />
<hkern u1="&#x27;" u2="o" k="123" />
<hkern u1="&#x27;" u2="n" k="61" />
<hkern u1="&#x27;" u2="m" k="61" />
<hkern u1="&#x27;" u2="g" k="61" />
<hkern u1="&#x27;" u2="e" k="123" />
<hkern u1="&#x27;" u2="d" k="123" />
<hkern u1="&#x27;" u2="c" k="123" />
<hkern u1="&#x27;" u2="a" k="82" />
<hkern u1="&#x27;" u2="Y" k="-20" />
<hkern u1="&#x27;" u2="W" k="-41" />
<hkern u1="&#x27;" u2="V" k="-41" />
<hkern u1="&#x27;" u2="T" k="-41" />
<hkern u1="&#x27;" u2="A" k="143" />
<hkern u1="&#x28;" u2="J" k="-184" />
<hkern u1="&#x2c;" u2="&#x16e;" k="41" />
<hkern u1="&#x2c;" u2="&#x164;" k="143" />
<hkern u1="&#x2c;" u2="&#x10c;" k="102" />
<hkern u1="&#x2c;" u2="&#xdd;" k="123" />
<hkern u1="&#x2c;" u2="&#xda;" k="41" />
<hkern u1="&#x2c;" u2="&#xd3;" k="102" />
<hkern u1="&#x2c;" u2="Y" k="123" />
<hkern u1="&#x2c;" u2="W" k="123" />
<hkern u1="&#x2c;" u2="V" k="123" />
<hkern u1="&#x2c;" u2="U" k="41" />
<hkern u1="&#x2c;" u2="T" k="143" />
<hkern u1="&#x2c;" u2="Q" k="102" />
<hkern u1="&#x2c;" u2="O" k="102" />
<hkern u1="&#x2c;" u2="G" k="102" />
<hkern u1="&#x2c;" u2="C" k="102" />
<hkern u1="&#x2d;" u2="&#x164;" k="82" />
<hkern u1="&#x2d;" u2="T" k="82" />
<hkern u1="&#x2e;" u2="&#x16e;" k="41" />
<hkern u1="&#x2e;" u2="&#x164;" k="143" />
<hkern u1="&#x2e;" u2="&#x10c;" k="102" />
<hkern u1="&#x2e;" u2="&#xdd;" k="123" />
<hkern u1="&#x2e;" u2="&#xda;" k="41" />
<hkern u1="&#x2e;" u2="&#xd3;" k="102" />
<hkern u1="&#x2e;" u2="Y" k="123" />
<hkern u1="&#x2e;" u2="W" k="123" />
<hkern u1="&#x2e;" u2="V" k="123" />
<hkern u1="&#x2e;" u2="U" k="41" />
<hkern u1="&#x2e;" u2="T" k="143" />
<hkern u1="&#x2e;" u2="Q" k="102" />
<hkern u1="&#x2e;" u2="O" k="102" />
<hkern u1="&#x2e;" u2="G" k="102" />
<hkern u1="&#x2e;" u2="C" k="102" />
<hkern u1="A" u2="&#x201d;" k="143" />
<hkern u1="A" u2="&#x2019;" k="143" />
<hkern u1="A" u2="&#x164;" k="143" />
<hkern u1="A" u2="&#x10c;" k="41" />
<hkern u1="A" u2="&#xdd;" k="123" />
<hkern u1="A" u2="&#xd3;" k="41" />
<hkern u1="A" u2="Y" k="123" />
<hkern u1="A" u2="W" k="82" />
<hkern u1="A" u2="V" k="82" />
<hkern u1="A" u2="T" k="143" />
<hkern u1="A" u2="Q" k="41" />
<hkern u1="A" u2="O" k="41" />
<hkern u1="A" u2="J" k="-266" />
<hkern u1="A" u2="G" k="41" />
<hkern u1="A" u2="C" k="41" />
<hkern u1="A" u2="&#x27;" k="143" />
<hkern u1="A" u2="&#x22;" k="143" />
<hkern u1="B" u2="&#x201e;" k="82" />
<hkern u1="B" u2="&#x201a;" k="82" />
<hkern u1="B" u2="&#x17d;" k="20" />
<hkern u1="B" u2="&#x164;" k="61" />
<hkern u1="B" u2="&#xdd;" k="20" />
<hkern u1="B" u2="&#xc1;" k="41" />
<hkern u1="B" u2="Z" k="20" />
<hkern u1="B" u2="Y" k="20" />
<hkern u1="B" u2="X" k="41" />
<hkern u1="B" u2="W" k="20" />
<hkern u1="B" u2="V" k="20" />
<hkern u1="B" u2="T" k="61" />
<hkern u1="B" u2="A" k="41" />
<hkern u1="B" u2="&#x2e;" k="82" />
<hkern u1="B" u2="&#x2c;" k="82" />
<hkern u1="C" u2="&#x10c;" k="41" />
<hkern u1="C" u2="&#xd3;" k="41" />
<hkern u1="C" u2="Q" k="41" />
<hkern u1="C" u2="O" k="41" />
<hkern u1="C" u2="G" k="41" />
<hkern u1="C" u2="C" k="41" />
<hkern u1="D" u2="&#x201e;" k="82" />
<hkern u1="D" u2="&#x201a;" k="82" />
<hkern u1="D" u2="&#x17d;" k="20" />
<hkern u1="D" u2="&#x164;" k="61" />
<hkern u1="D" u2="&#xdd;" k="20" />
<hkern u1="D" u2="&#xc1;" k="41" />
<hkern u1="D" u2="Z" k="20" />
<hkern u1="D" u2="Y" k="20" />
<hkern u1="D" u2="X" k="41" />
<hkern u1="D" u2="W" k="20" />
<hkern u1="D" u2="V" k="20" />
<hkern u1="D" u2="T" k="61" />
<hkern u1="D" u2="A" k="41" />
<hkern u1="D" u2="&#x2e;" k="82" />
<hkern u1="D" u2="&#x2c;" k="82" />
<hkern u1="E" u2="J" k="-123" />
<hkern u1="F" u2="&#x201e;" k="123" />
<hkern u1="F" u2="&#x201a;" k="123" />
<hkern u1="F" u2="&#xc1;" k="41" />
<hkern u1="F" u2="A" k="41" />
<hkern u1="F" u2="&#x3f;" k="-41" />
<hkern u1="F" u2="&#x2e;" k="123" />
<hkern u1="F" u2="&#x2c;" k="123" />
<hkern u1="K" u2="&#x10c;" k="41" />
<hkern u1="K" u2="&#xd3;" k="41" />
<hkern u1="K" u2="Q" k="41" />
<hkern u1="K" u2="O" k="41" />
<hkern u1="K" u2="G" k="41" />
<hkern u1="K" u2="C" k="41" />
<hkern u1="L" u2="&#x201d;" k="164" />
<hkern u1="L" u2="&#x2019;" k="164" />
<hkern u1="L" u2="&#x16e;" k="20" />
<hkern u1="L" u2="&#x164;" k="41" />
<hkern u1="L" u2="&#x10c;" k="41" />
<hkern u1="L" u2="&#xdd;" k="61" />
<hkern u1="L" u2="&#xda;" k="20" />
<hkern u1="L" u2="&#xd3;" k="41" />
<hkern u1="L" u2="Y" k="61" />
<hkern u1="L" u2="W" k="41" />
<hkern u1="L" u2="V" k="41" />
<hkern u1="L" u2="U" k="20" />
<hkern u1="L" u2="T" k="41" />
<hkern u1="L" u2="Q" k="41" />
<hkern u1="L" u2="O" k="41" />
<hkern u1="L" u2="G" k="41" />
<hkern u1="L" u2="C" k="41" />
<hkern u1="L" u2="&#x27;" k="164" />
<hkern u1="L" u2="&#x22;" k="164" />
<hkern u1="O" u2="&#x201e;" k="82" />
<hkern u1="O" u2="&#x201a;" k="82" />
<hkern u1="O" u2="&#x17d;" k="20" />
<hkern u1="O" u2="&#x164;" k="61" />
<hkern u1="O" u2="&#xdd;" k="20" />
<hkern u1="O" u2="&#xc1;" k="41" />
<hkern u1="O" u2="Z" k="20" />
<hkern u1="O" u2="Y" k="20" />
<hkern u1="O" u2="X" k="41" />
<hkern u1="O" u2="W" k="20" />
<hkern u1="O" u2="V" k="20" />
<hkern u1="O" u2="T" k="61" />
<hkern u1="O" u2="A" k="41" />
<hkern u1="O" u2="&#x2e;" k="82" />
<hkern u1="O" u2="&#x2c;" k="82" />
<hkern u1="P" u2="&#x201e;" k="266" />
<hkern u1="P" u2="&#x201a;" k="266" />
<hkern u1="P" u2="&#x17d;" k="20" />
<hkern u1="P" u2="&#xc1;" k="102" />
<hkern u1="P" u2="Z" k="20" />
<hkern u1="P" u2="X" k="41" />
<hkern u1="P" u2="A" k="102" />
<hkern u1="P" u2="&#x2e;" k="266" />
<hkern u1="P" u2="&#x2c;" k="266" />
<hkern u1="Q" u2="&#x201e;" k="82" />
<hkern u1="Q" u2="&#x201a;" k="82" />
<hkern u1="Q" u2="&#x17d;" k="20" />
<hkern u1="Q" u2="&#x164;" k="61" />
<hkern u1="Q" u2="&#xdd;" k="20" />
<hkern u1="Q" u2="&#xc1;" k="41" />
<hkern u1="Q" u2="Z" k="20" />
<hkern u1="Q" u2="Y" k="20" />
<hkern u1="Q" u2="X" k="41" />
<hkern u1="Q" u2="W" k="20" />
<hkern u1="Q" u2="V" k="20" />
<hkern u1="Q" u2="T" k="61" />
<hkern u1="Q" u2="A" k="41" />
<hkern u1="Q" u2="&#x2e;" k="82" />
<hkern u1="Q" u2="&#x2c;" k="82" />
<hkern u1="T" u2="&#x201e;" k="123" />
<hkern u1="T" u2="&#x201a;" k="123" />
<hkern u1="T" u2="&#x2014;" k="82" />
<hkern u1="T" u2="&#x2013;" k="82" />
<hkern u1="T" u2="&#x17e;" k="82" />
<hkern u1="T" u2="&#x16f;" k="102" />
<hkern u1="T" u2="&#x164;" k="-41" />
<hkern u1="T" u2="&#x11b;" k="143" />
<hkern u1="T" u2="&#x10f;" k="143" />
<hkern u1="T" u2="&#x10d;" k="143" />
<hkern u1="T" u2="&#x10c;" k="41" />
<hkern u1="T" u2="&#xfd;" k="41" />
<hkern u1="T" u2="&#xfa;" k="102" />
<hkern u1="T" u2="&#xf3;" k="143" />
<hkern u1="T" u2="&#xe9;" k="143" />
<hkern u1="T" u2="&#xe1;" k="164" />
<hkern u1="T" u2="&#xd3;" k="41" />
<hkern u1="T" u2="&#xc1;" k="143" />
<hkern u1="T" u2="z" k="82" />
<hkern u1="T" u2="y" k="41" />
<hkern u1="T" u2="x" k="41" />
<hkern u1="T" u2="w" k="41" />
<hkern u1="T" u2="v" k="41" />
<hkern u1="T" u2="u" k="102" />
<hkern u1="T" u2="s" k="123" />
<hkern u1="T" u2="r" k="102" />
<hkern u1="T" u2="q" k="143" />
<hkern u1="T" u2="p" k="102" />
<hkern u1="T" u2="o" k="143" />
<hkern u1="T" u2="n" k="102" />
<hkern u1="T" u2="m" k="102" />
<hkern u1="T" u2="g" k="143" />
<hkern u1="T" u2="e" k="143" />
<hkern u1="T" u2="d" k="143" />
<hkern u1="T" u2="c" k="143" />
<hkern u1="T" u2="a" k="164" />
<hkern u1="T" u2="T" k="-41" />
<hkern u1="T" u2="Q" k="41" />
<hkern u1="T" u2="O" k="41" />
<hkern u1="T" u2="G" k="41" />
<hkern u1="T" u2="C" k="41" />
<hkern u1="T" u2="A" k="143" />
<hkern u1="T" u2="&#x3f;" k="-41" />
<hkern u1="T" u2="&#x2e;" k="123" />
<hkern u1="T" u2="&#x2d;" k="82" />
<hkern u1="T" u2="&#x2c;" k="123" />
<hkern u1="U" u2="&#x201e;" k="41" />
<hkern u1="U" u2="&#x201a;" k="41" />
<hkern u1="U" u2="&#xc1;" k="20" />
<hkern u1="U" u2="A" k="20" />
<hkern u1="U" u2="&#x2e;" k="41" />
<hkern u1="U" u2="&#x2c;" k="41" />
<hkern u1="V" u2="&#x201e;" k="102" />
<hkern u1="V" u2="&#x201a;" k="102" />
<hkern u1="V" u2="&#x16f;" k="20" />
<hkern u1="V" u2="&#x11b;" k="41" />
<hkern u1="V" u2="&#x10f;" k="41" />
<hkern u1="V" u2="&#x10d;" k="41" />
<hkern u1="V" u2="&#x10c;" k="20" />
<hkern u1="V" u2="&#xfa;" k="20" />
<hkern u1="V" u2="&#xf3;" k="41" />
<hkern u1="V" u2="&#xe9;" k="41" />
<hkern u1="V" u2="&#xe1;" k="41" />
<hkern u1="V" u2="&#xd3;" k="20" />
<hkern u1="V" u2="&#xc1;" k="82" />
<hkern u1="V" u2="u" k="20" />
<hkern u1="V" u2="s" k="20" />
<hkern u1="V" u2="r" k="20" />
<hkern u1="V" u2="q" k="41" />
<hkern u1="V" u2="p" k="20" />
<hkern u1="V" u2="o" k="41" />
<hkern u1="V" u2="n" k="20" />
<hkern u1="V" u2="m" k="20" />
<hkern u1="V" u2="g" k="20" />
<hkern u1="V" u2="e" k="41" />
<hkern u1="V" u2="d" k="41" />
<hkern u1="V" u2="c" k="41" />
<hkern u1="V" u2="a" k="41" />
<hkern u1="V" u2="Q" k="20" />
<hkern u1="V" u2="O" k="20" />
<hkern u1="V" u2="G" k="20" />
<hkern u1="V" u2="C" k="20" />
<hkern u1="V" u2="A" k="82" />
<hkern u1="V" u2="&#x3f;" k="-41" />
<hkern u1="V" u2="&#x2e;" k="102" />
<hkern u1="V" u2="&#x2c;" k="102" />
<hkern u1="W" u2="&#x201e;" k="102" />
<hkern u1="W" u2="&#x201a;" k="102" />
<hkern u1="W" u2="&#x16f;" k="20" />
<hkern u1="W" u2="&#x11b;" k="41" />
<hkern u1="W" u2="&#x10f;" k="41" />
<hkern u1="W" u2="&#x10d;" k="41" />
<hkern u1="W" u2="&#x10c;" k="20" />
<hkern u1="W" u2="&#xfa;" k="20" />
<hkern u1="W" u2="&#xf3;" k="41" />
<hkern u1="W" u2="&#xe9;" k="41" />
<hkern u1="W" u2="&#xe1;" k="41" />
<hkern u1="W" u2="&#xd3;" k="20" />
<hkern u1="W" u2="&#xc1;" k="82" />
<hkern u1="W" u2="u" k="20" />
<hkern u1="W" u2="s" k="20" />
<hkern u1="W" u2="r" k="20" />
<hkern u1="W" u2="q" k="41" />
<hkern u1="W" u2="p" k="20" />
<hkern u1="W" u2="o" k="41" />
<hkern u1="W" u2="n" k="20" />
<hkern u1="W" u2="m" k="20" />
<hkern u1="W" u2="g" k="20" />
<hkern u1="W" u2="e" k="41" />
<hkern u1="W" u2="d" k="41" />
<hkern u1="W" u2="c" k="41" />
<hkern u1="W" u2="a" k="41" />
<hkern u1="W" u2="Q" k="20" />
<hkern u1="W" u2="O" k="20" />
<hkern u1="W" u2="G" k="20" />
<hkern u1="W" u2="C" k="20" />
<hkern u1="W" u2="A" k="82" />
<hkern u1="W" u2="&#x3f;" k="-41" />
<hkern u1="W" u2="&#x2e;" k="102" />
<hkern u1="W" u2="&#x2c;" k="102" />
<hkern u1="X" u2="&#x10c;" k="41" />
<hkern u1="X" u2="&#xd3;" k="41" />
<hkern u1="X" u2="Q" k="41" />
<hkern u1="X" u2="O" k="41" />
<hkern u1="X" u2="G" k="41" />
<hkern u1="X" u2="C" k="41" />
<hkern u1="Y" u2="&#x201e;" k="123" />
<hkern u1="Y" u2="&#x201a;" k="123" />
<hkern u1="Y" u2="&#x17e;" k="41" />
<hkern u1="Y" u2="&#x16f;" k="61" />
<hkern u1="Y" u2="&#x11b;" k="102" />
<hkern u1="Y" u2="&#x10f;" k="102" />
<hkern u1="Y" u2="&#x10d;" k="102" />
<hkern u1="Y" u2="&#x10c;" k="41" />
<hkern u1="Y" u2="&#xfa;" k="61" />
<hkern u1="Y" u2="&#xf3;" k="102" />
<hkern u1="Y" u2="&#xe9;" k="102" />
<hkern u1="Y" u2="&#xe1;" k="102" />
<hkern u1="Y" u2="&#xd3;" k="41" />
<hkern u1="Y" u2="&#xc1;" k="123" />
<hkern u1="Y" u2="z" k="41" />
<hkern u1="Y" u2="u" k="61" />
<hkern u1="Y" u2="s" k="82" />
<hkern u1="Y" u2="r" k="61" />
<hkern u1="Y" u2="q" k="102" />
<hkern u1="Y" u2="p" k="61" />
<hkern u1="Y" u2="o" k="102" />
<hkern u1="Y" u2="n" k="61" />
<hkern u1="Y" u2="m" k="61" />
<hkern u1="Y" u2="g" k="41" />
<hkern u1="Y" u2="e" k="102" />
<hkern u1="Y" u2="d" k="102" />
<hkern u1="Y" u2="c" k="102" />
<hkern u1="Y" u2="a" k="102" />
<hkern u1="Y" u2="Q" k="41" />
<hkern u1="Y" u2="O" k="41" />
<hkern u1="Y" u2="G" k="41" />
<hkern u1="Y" u2="C" k="41" />
<hkern u1="Y" u2="A" k="123" />
<hkern u1="Y" u2="&#x3f;" k="-41" />
<hkern u1="Y" u2="&#x2e;" k="123" />
<hkern u1="Y" u2="&#x2c;" k="123" />
<hkern u1="Z" u2="&#x10c;" k="20" />
<hkern u1="Z" u2="&#xd3;" k="20" />
<hkern u1="Z" u2="Q" k="20" />
<hkern u1="Z" u2="O" k="20" />
<hkern u1="Z" u2="G" k="20" />
<hkern u1="Z" u2="C" k="20" />
<hkern u1="[" u2="J" k="-184" />
<hkern u1="a" u2="&#x201d;" k="20" />
<hkern u1="a" u2="&#x2019;" k="20" />
<hkern u1="a" u2="&#x27;" k="20" />
<hkern u1="a" u2="&#x22;" k="20" />
<hkern u1="b" u2="&#x201d;" k="20" />
<hkern u1="b" u2="&#x2019;" k="20" />
<hkern u1="b" u2="&#x17e;" k="20" />
<hkern u1="b" u2="&#xfd;" k="41" />
<hkern u1="b" u2="z" k="20" />
<hkern u1="b" u2="y" k="41" />
<hkern u1="b" u2="x" k="41" />
<hkern u1="b" u2="w" k="41" />
<hkern u1="b" u2="v" k="41" />
<hkern u1="b" u2="&#x27;" k="20" />
<hkern u1="b" u2="&#x22;" k="20" />
<hkern u1="c" u2="&#x201d;" k="-41" />
<hkern u1="c" u2="&#x2019;" k="-41" />
<hkern u1="c" u2="&#x27;" k="-41" />
<hkern u1="c" u2="&#x22;" k="-41" />
<hkern u1="e" u2="&#x201d;" k="20" />
<hkern u1="e" u2="&#x2019;" k="20" />
<hkern u1="e" u2="&#x17e;" k="20" />
<hkern u1="e" u2="&#xfd;" k="41" />
<hkern u1="e" u2="z" k="20" />
<hkern u1="e" u2="y" k="41" />
<hkern u1="e" u2="x" k="41" />
<hkern u1="e" u2="w" k="41" />
<hkern u1="e" u2="v" k="41" />
<hkern u1="e" u2="&#x27;" k="20" />
<hkern u1="e" u2="&#x22;" k="20" />
<hkern u1="f" u2="&#x201d;" k="-123" />
<hkern u1="f" u2="&#x2019;" k="-123" />
<hkern u1="f" u2="&#x27;" k="-123" />
<hkern u1="f" u2="&#x22;" k="-123" />
<hkern u1="h" u2="&#x201d;" k="20" />
<hkern u1="h" u2="&#x2019;" k="20" />
<hkern u1="h" u2="&#x27;" k="20" />
<hkern u1="h" u2="&#x22;" k="20" />
<hkern u1="k" u2="&#x11b;" k="41" />
<hkern u1="k" u2="&#x10f;" k="41" />
<hkern u1="k" u2="&#x10d;" k="41" />
<hkern u1="k" u2="&#xf3;" k="41" />
<hkern u1="k" u2="&#xe9;" k="41" />
<hkern u1="k" u2="q" k="41" />
<hkern u1="k" u2="o" k="41" />
<hkern u1="k" u2="e" k="41" />
<hkern u1="k" u2="d" k="41" />
<hkern u1="k" u2="c" k="41" />
<hkern u1="m" u2="&#x201d;" k="20" />
<hkern u1="m" u2="&#x2019;" k="20" />
<hkern u1="m" u2="&#x27;" k="20" />
<hkern u1="m" u2="&#x22;" k="20" />
<hkern u1="n" u2="&#x201d;" k="20" />
<hkern u1="n" u2="&#x2019;" k="20" />
<hkern u1="n" u2="&#x27;" k="20" />
<hkern u1="n" u2="&#x22;" k="20" />
<hkern u1="o" u2="&#x201d;" k="20" />
<hkern u1="o" u2="&#x2019;" k="20" />
<hkern u1="o" u2="&#x17e;" k="20" />
<hkern u1="o" u2="&#xfd;" k="41" />
<hkern u1="o" u2="z" k="20" />
<hkern u1="o" u2="y" k="41" />
<hkern u1="o" u2="x" k="41" />
<hkern u1="o" u2="w" k="41" />
<hkern u1="o" u2="v" k="41" />
<hkern u1="o" u2="&#x27;" k="20" />
<hkern u1="o" u2="&#x22;" k="20" />
<hkern u1="p" u2="&#x201d;" k="20" />
<hkern u1="p" u2="&#x2019;" k="20" />
<hkern u1="p" u2="&#x17e;" k="20" />
<hkern u1="p" u2="&#xfd;" k="41" />
<hkern u1="p" u2="z" k="20" />
<hkern u1="p" u2="y" k="41" />
<hkern u1="p" u2="x" k="41" />
<hkern u1="p" u2="w" k="41" />
<hkern u1="p" u2="v" k="41" />
<hkern u1="p" u2="&#x27;" k="20" />
<hkern u1="p" u2="&#x22;" k="20" />
<hkern u1="r" u2="&#x201d;" k="-82" />
<hkern u1="r" u2="&#x2019;" k="-82" />
<hkern u1="r" u2="&#x11b;" k="41" />
<hkern u1="r" u2="&#x10f;" k="41" />
<hkern u1="r" u2="&#x10d;" k="41" />
<hkern u1="r" u2="&#xf3;" k="41" />
<hkern u1="r" u2="&#xe9;" k="41" />
<hkern u1="r" u2="&#xe1;" k="41" />
<hkern u1="r" u2="q" k="41" />
<hkern u1="r" u2="o" k="41" />
<hkern u1="r" u2="g" k="20" />
<hkern u1="r" u2="e" k="41" />
<hkern u1="r" u2="d" k="41" />
<hkern u1="r" u2="c" k="41" />
<hkern u1="r" u2="a" k="41" />
<hkern u1="r" u2="&#x27;" k="-82" />
<hkern u1="r" u2="&#x22;" k="-82" />
<hkern u1="t" u2="&#x201d;" k="-41" />
<hkern u1="t" u2="&#x2019;" k="-41" />
<hkern u1="t" u2="&#x27;" k="-41" />
<hkern u1="t" u2="&#x22;" k="-41" />
<hkern u1="v" u2="&#x201e;" k="82" />
<hkern u1="v" u2="&#x201d;" k="-82" />
<hkern u1="v" u2="&#x201a;" k="82" />
<hkern u1="v" u2="&#x2019;" k="-82" />
<hkern u1="v" u2="&#x3f;" k="-41" />
<hkern u1="v" u2="&#x2e;" k="82" />
<hkern u1="v" u2="&#x2c;" k="82" />
<hkern u1="v" u2="&#x27;" k="-82" />
<hkern u1="v" u2="&#x22;" k="-82" />
<hkern u1="w" u2="&#x201e;" k="82" />
<hkern u1="w" u2="&#x201d;" k="-82" />
<hkern u1="w" u2="&#x201a;" k="82" />
<hkern u1="w" u2="&#x2019;" k="-82" />
<hkern u1="w" u2="&#x3f;" k="-41" />
<hkern u1="w" u2="&#x2e;" k="82" />
<hkern u1="w" u2="&#x2c;" k="82" />
<hkern u1="w" u2="&#x27;" k="-82" />
<hkern u1="w" u2="&#x22;" k="-82" />
<hkern u1="x" u2="&#x11b;" k="41" />
<hkern u1="x" u2="&#x10f;" k="41" />
<hkern u1="x" u2="&#x10d;" k="41" />
<hkern u1="x" u2="&#xf3;" k="41" />
<hkern u1="x" u2="&#xe9;" k="41" />
<hkern u1="x" u2="q" k="41" />
<hkern u1="x" u2="o" k="41" />
<hkern u1="x" u2="e" k="41" />
<hkern u1="x" u2="d" k="41" />
<hkern u1="x" u2="c" k="41" />
<hkern u1="y" u2="&#x201e;" k="82" />
<hkern u1="y" u2="&#x201d;" k="-82" />
<hkern u1="y" u2="&#x201a;" k="82" />
<hkern u1="y" u2="&#x2019;" k="-82" />
<hkern u1="y" u2="&#x3f;" k="-41" />
<hkern u1="y" u2="&#x2e;" k="82" />
<hkern u1="y" u2="&#x2c;" k="82" />
<hkern u1="y" u2="&#x27;" k="-82" />
<hkern u1="y" u2="&#x22;" k="-82" />
<hkern u1="&#x7b;" u2="J" k="-184" />
<hkern u1="&#xc1;" u2="&#x201d;" k="143" />
<hkern u1="&#xc1;" u2="&#x2019;" k="143" />
<hkern u1="&#xc1;" u2="&#x164;" k="143" />
<hkern u1="&#xc1;" u2="&#x10c;" k="41" />
<hkern u1="&#xc1;" u2="&#xdd;" k="123" />
<hkern u1="&#xc1;" u2="&#xd3;" k="41" />
<hkern u1="&#xc1;" u2="Y" k="123" />
<hkern u1="&#xc1;" u2="W" k="82" />
<hkern u1="&#xc1;" u2="V" k="82" />
<hkern u1="&#xc1;" u2="T" k="143" />
<hkern u1="&#xc1;" u2="Q" k="41" />
<hkern u1="&#xc1;" u2="O" k="41" />
<hkern u1="&#xc1;" u2="J" k="-266" />
<hkern u1="&#xc1;" u2="G" k="41" />
<hkern u1="&#xc1;" u2="C" k="41" />
<hkern u1="&#xc1;" u2="&#x27;" k="143" />
<hkern u1="&#xc1;" u2="&#x22;" k="143" />
<hkern u1="&#xc9;" u2="J" k="-123" />
<hkern u1="&#xd3;" u2="&#x201e;" k="82" />
<hkern u1="&#xd3;" u2="&#x201a;" k="82" />
<hkern u1="&#xd3;" u2="&#x17d;" k="20" />
<hkern u1="&#xd3;" u2="&#x164;" k="61" />
<hkern u1="&#xd3;" u2="&#xdd;" k="20" />
<hkern u1="&#xd3;" u2="&#xc1;" k="41" />
<hkern u1="&#xd3;" u2="Z" k="20" />
<hkern u1="&#xd3;" u2="Y" k="20" />
<hkern u1="&#xd3;" u2="X" k="41" />
<hkern u1="&#xd3;" u2="W" k="20" />
<hkern u1="&#xd3;" u2="V" k="20" />
<hkern u1="&#xd3;" u2="T" k="61" />
<hkern u1="&#xd3;" u2="A" k="41" />
<hkern u1="&#xd3;" u2="&#x2e;" k="82" />
<hkern u1="&#xd3;" u2="&#x2c;" k="82" />
<hkern u1="&#xda;" u2="&#x201e;" k="41" />
<hkern u1="&#xda;" u2="&#x201a;" k="41" />
<hkern u1="&#xda;" u2="&#xc1;" k="20" />
<hkern u1="&#xda;" u2="A" k="20" />
<hkern u1="&#xda;" u2="&#x2e;" k="41" />
<hkern u1="&#xda;" u2="&#x2c;" k="41" />
<hkern u1="&#xdd;" u2="&#x201e;" k="123" />
<hkern u1="&#xdd;" u2="&#x201a;" k="123" />
<hkern u1="&#xdd;" u2="&#x17e;" k="41" />
<hkern u1="&#xdd;" u2="&#x16f;" k="61" />
<hkern u1="&#xdd;" u2="&#x11b;" k="102" />
<hkern u1="&#xdd;" u2="&#x10f;" k="102" />
<hkern u1="&#xdd;" u2="&#x10d;" k="102" />
<hkern u1="&#xdd;" u2="&#x10c;" k="41" />
<hkern u1="&#xdd;" u2="&#xfa;" k="61" />
<hkern u1="&#xdd;" u2="&#xf3;" k="102" />
<hkern u1="&#xdd;" u2="&#xe9;" k="102" />
<hkern u1="&#xdd;" u2="&#xe1;" k="102" />
<hkern u1="&#xdd;" u2="&#xd3;" k="41" />
<hkern u1="&#xdd;" u2="&#xc1;" k="123" />
<hkern u1="&#xdd;" u2="z" k="41" />
<hkern u1="&#xdd;" u2="u" k="61" />
<hkern u1="&#xdd;" u2="s" k="82" />
<hkern u1="&#xdd;" u2="r" k="61" />
<hkern u1="&#xdd;" u2="q" k="102" />
<hkern u1="&#xdd;" u2="p" k="61" />
<hkern u1="&#xdd;" u2="o" k="102" />
<hkern u1="&#xdd;" u2="n" k="61" />
<hkern u1="&#xdd;" u2="m" k="61" />
<hkern u1="&#xdd;" u2="g" k="41" />
<hkern u1="&#xdd;" u2="e" k="102" />
<hkern u1="&#xdd;" u2="d" k="102" />
<hkern u1="&#xdd;" u2="c" k="102" />
<hkern u1="&#xdd;" u2="a" k="102" />
<hkern u1="&#xdd;" u2="Q" k="41" />
<hkern u1="&#xdd;" u2="O" k="41" />
<hkern u1="&#xdd;" u2="G" k="41" />
<hkern u1="&#xdd;" u2="C" k="41" />
<hkern u1="&#xdd;" u2="A" k="123" />
<hkern u1="&#xdd;" u2="&#x3f;" k="-41" />
<hkern u1="&#xdd;" u2="&#x2e;" k="123" />
<hkern u1="&#xdd;" u2="&#x2c;" k="123" />
<hkern u1="&#xe1;" u2="&#x201d;" k="20" />
<hkern u1="&#xe1;" u2="&#x2019;" k="20" />
<hkern u1="&#xe1;" u2="&#x27;" k="20" />
<hkern u1="&#xe1;" u2="&#x22;" k="20" />
<hkern u1="&#xe9;" u2="&#x201d;" k="20" />
<hkern u1="&#xe9;" u2="&#x2019;" k="20" />
<hkern u1="&#xe9;" u2="&#x17e;" k="20" />
<hkern u1="&#xe9;" u2="&#xfd;" k="41" />
<hkern u1="&#xe9;" u2="z" k="20" />
<hkern u1="&#xe9;" u2="y" k="41" />
<hkern u1="&#xe9;" u2="x" k="41" />
<hkern u1="&#xe9;" u2="w" k="41" />
<hkern u1="&#xe9;" u2="v" k="41" />
<hkern u1="&#xe9;" u2="&#x27;" k="20" />
<hkern u1="&#xe9;" u2="&#x22;" k="20" />
<hkern u1="&#xf3;" u2="&#x201d;" k="20" />
<hkern u1="&#xf3;" u2="&#x2019;" k="20" />
<hkern u1="&#xf3;" u2="&#x17e;" k="20" />
<hkern u1="&#xf3;" u2="&#xfd;" k="41" />
<hkern u1="&#xf3;" u2="z" k="20" />
<hkern u1="&#xf3;" u2="y" k="41" />
<hkern u1="&#xf3;" u2="x" k="41" />
<hkern u1="&#xf3;" u2="w" k="41" />
<hkern u1="&#xf3;" u2="v" k="41" />
<hkern u1="&#xf3;" u2="&#x27;" k="20" />
<hkern u1="&#xf3;" u2="&#x22;" k="20" />
<hkern u1="&#xfd;" u2="&#x201e;" k="82" />
<hkern u1="&#xfd;" u2="&#x201d;" k="-82" />
<hkern u1="&#xfd;" u2="&#x201a;" k="82" />
<hkern u1="&#xfd;" u2="&#x2019;" k="-82" />
<hkern u1="&#xfd;" u2="&#x3f;" k="-41" />
<hkern u1="&#xfd;" u2="&#x2e;" k="82" />
<hkern u1="&#xfd;" u2="&#x2c;" k="82" />
<hkern u1="&#xfd;" u2="&#x27;" k="-82" />
<hkern u1="&#xfd;" u2="&#x22;" k="-82" />
<hkern u1="&#x10c;" u2="&#x10c;" k="41" />
<hkern u1="&#x10c;" u2="&#xd3;" k="41" />
<hkern u1="&#x10c;" u2="Q" k="41" />
<hkern u1="&#x10c;" u2="O" k="41" />
<hkern u1="&#x10c;" u2="G" k="41" />
<hkern u1="&#x10c;" u2="C" k="41" />
<hkern u1="&#x10e;" u2="&#x201e;" k="82" />
<hkern u1="&#x10e;" u2="&#x201a;" k="82" />
<hkern u1="&#x10e;" u2="&#x17d;" k="20" />
<hkern u1="&#x10e;" u2="&#x164;" k="61" />
<hkern u1="&#x10e;" u2="&#xdd;" k="20" />
<hkern u1="&#x10e;" u2="&#xc1;" k="41" />
<hkern u1="&#x10e;" u2="Z" k="20" />
<hkern u1="&#x10e;" u2="Y" k="20" />
<hkern u1="&#x10e;" u2="X" k="41" />
<hkern u1="&#x10e;" u2="W" k="20" />
<hkern u1="&#x10e;" u2="V" k="20" />
<hkern u1="&#x10e;" u2="T" k="61" />
<hkern u1="&#x10e;" u2="A" k="41" />
<hkern u1="&#x10e;" u2="&#x2e;" k="82" />
<hkern u1="&#x10e;" u2="&#x2c;" k="82" />
<hkern u1="&#x10f;" u2="&#x201d;" k="-82" />
<hkern u1="&#x10f;" u2="&#x2019;" k="-82" />
<hkern u1="&#x10f;" u2="&#x7d;" k="-143" />
<hkern u1="&#x10f;" u2="l" k="-61" />
<hkern u1="&#x10f;" u2="k" k="-61" />
<hkern u1="&#x10f;" u2="h" k="-61" />
<hkern u1="&#x10f;" u2="b" k="-61" />
<hkern u1="&#x10f;" u2="]" k="-143" />
<hkern u1="&#x10f;" u2="&#x3f;" k="-164" />
<hkern u1="&#x10f;" u2="&#x29;" k="-143" />
<hkern u1="&#x10f;" u2="&#x27;" k="-82" />
<hkern u1="&#x10f;" u2="&#x22;" k="-82" />
<hkern u1="&#x11a;" u2="J" k="-123" />
<hkern u1="&#x11b;" u2="&#x201d;" k="20" />
<hkern u1="&#x11b;" u2="&#x2019;" k="20" />
<hkern u1="&#x11b;" u2="&#x17e;" k="20" />
<hkern u1="&#x11b;" u2="&#xfd;" k="41" />
<hkern u1="&#x11b;" u2="z" k="20" />
<hkern u1="&#x11b;" u2="y" k="41" />
<hkern u1="&#x11b;" u2="x" k="41" />
<hkern u1="&#x11b;" u2="w" k="41" />
<hkern u1="&#x11b;" u2="v" k="41" />
<hkern u1="&#x11b;" u2="&#x27;" k="20" />
<hkern u1="&#x11b;" u2="&#x22;" k="20" />
<hkern u1="&#x159;" u2="&#x201d;" k="-82" />
<hkern u1="&#x159;" u2="&#x2019;" k="-82" />
<hkern u1="&#x159;" u2="&#x11b;" k="41" />
<hkern u1="&#x159;" u2="&#x10f;" k="41" />
<hkern u1="&#x159;" u2="&#x10d;" k="41" />
<hkern u1="&#x159;" u2="&#xf3;" k="41" />
<hkern u1="&#x159;" u2="&#xe9;" k="41" />
<hkern u1="&#x159;" u2="&#xe1;" k="41" />
<hkern u1="&#x159;" u2="q" k="41" />
<hkern u1="&#x159;" u2="o" k="41" />
<hkern u1="&#x159;" u2="g" k="20" />
<hkern u1="&#x159;" u2="e" k="41" />
<hkern u1="&#x159;" u2="d" k="41" />
<hkern u1="&#x159;" u2="c" k="41" />
<hkern u1="&#x159;" u2="a" k="41" />
<hkern u1="&#x159;" u2="&#x27;" k="-82" />
<hkern u1="&#x159;" u2="&#x22;" k="-82" />
<hkern u1="&#x164;" u2="&#x201e;" k="123" />
<hkern u1="&#x164;" u2="&#x201a;" k="123" />
<hkern u1="&#x164;" u2="&#x2014;" k="82" />
<hkern u1="&#x164;" u2="&#x2013;" k="82" />
<hkern u1="&#x164;" u2="&#x17e;" k="82" />
<hkern u1="&#x164;" u2="&#x16f;" k="102" />
<hkern u1="&#x164;" u2="&#x164;" k="-41" />
<hkern u1="&#x164;" u2="&#x11b;" k="143" />
<hkern u1="&#x164;" u2="&#x10f;" k="143" />
<hkern u1="&#x164;" u2="&#x10d;" k="143" />
<hkern u1="&#x164;" u2="&#x10c;" k="41" />
<hkern u1="&#x164;" u2="&#xfd;" k="41" />
<hkern u1="&#x164;" u2="&#xfa;" k="102" />
<hkern u1="&#x164;" u2="&#xf3;" k="143" />
<hkern u1="&#x164;" u2="&#xe9;" k="143" />
<hkern u1="&#x164;" u2="&#xe1;" k="164" />
<hkern u1="&#x164;" u2="&#xd3;" k="41" />
<hkern u1="&#x164;" u2="&#xc1;" k="143" />
<hkern u1="&#x164;" u2="z" k="82" />
<hkern u1="&#x164;" u2="y" k="41" />
<hkern u1="&#x164;" u2="x" k="41" />
<hkern u1="&#x164;" u2="w" k="41" />
<hkern u1="&#x164;" u2="v" k="41" />
<hkern u1="&#x164;" u2="u" k="102" />
<hkern u1="&#x164;" u2="s" k="123" />
<hkern u1="&#x164;" u2="r" k="102" />
<hkern u1="&#x164;" u2="q" k="143" />
<hkern u1="&#x164;" u2="p" k="102" />
<hkern u1="&#x164;" u2="o" k="143" />
<hkern u1="&#x164;" u2="n" k="102" />
<hkern u1="&#x164;" u2="m" k="102" />
<hkern u1="&#x164;" u2="g" k="143" />
<hkern u1="&#x164;" u2="e" k="143" />
<hkern u1="&#x164;" u2="d" k="143" />
<hkern u1="&#x164;" u2="c" k="143" />
<hkern u1="&#x164;" u2="a" k="164" />
<hkern u1="&#x164;" u2="T" k="-41" />
<hkern u1="&#x164;" u2="Q" k="41" />
<hkern u1="&#x164;" u2="O" k="41" />
<hkern u1="&#x164;" u2="G" k="41" />
<hkern u1="&#x164;" u2="C" k="41" />
<hkern u1="&#x164;" u2="A" k="143" />
<hkern u1="&#x164;" u2="&#x3f;" k="-41" />
<hkern u1="&#x164;" u2="&#x2e;" k="123" />
<hkern u1="&#x164;" u2="&#x2d;" k="82" />
<hkern u1="&#x164;" u2="&#x2c;" k="123" />
<hkern u1="&#x165;" u2="&#x201d;" k="-41" />
<hkern u1="&#x165;" u2="&#x2019;" k="-41" />
<hkern u1="&#x165;" u2="&#x27;" k="-41" />
<hkern u1="&#x165;" u2="&#x22;" k="-41" />
<hkern u1="&#x16e;" u2="&#x201e;" k="41" />
<hkern u1="&#x16e;" u2="&#x201a;" k="41" />
<hkern u1="&#x16e;" u2="&#xc1;" k="20" />
<hkern u1="&#x16e;" u2="A" k="20" />
<hkern u1="&#x16e;" u2="&#x2e;" k="41" />
<hkern u1="&#x16e;" u2="&#x2c;" k="41" />
<hkern u1="&#x17d;" u2="&#x10c;" k="20" />
<hkern u1="&#x17d;" u2="&#xd3;" k="20" />
<hkern u1="&#x17d;" u2="Q" k="20" />
<hkern u1="&#x17d;" u2="O" k="20" />
<hkern u1="&#x17d;" u2="G" k="20" />
<hkern u1="&#x17d;" u2="C" k="20" />
<hkern u1="&#x2013;" u2="&#x164;" k="82" />
<hkern u1="&#x2013;" u2="T" k="82" />
<hkern u1="&#x2014;" u2="&#x164;" k="82" />
<hkern u1="&#x2014;" u2="T" k="82" />
<hkern u1="&#x2018;" u2="&#x16f;" k="61" />
<hkern u1="&#x2018;" u2="&#x164;" k="-41" />
<hkern u1="&#x2018;" u2="&#x11b;" k="123" />
<hkern u1="&#x2018;" u2="&#x10f;" k="123" />
<hkern u1="&#x2018;" u2="&#x10d;" k="123" />
<hkern u1="&#x2018;" u2="&#xfa;" k="61" />
<hkern u1="&#x2018;" u2="&#xf3;" k="123" />
<hkern u1="&#x2018;" u2="&#xe9;" k="123" />
<hkern u1="&#x2018;" u2="&#xe1;" k="82" />
<hkern u1="&#x2018;" u2="&#xdd;" k="-20" />
<hkern u1="&#x2018;" u2="&#xc1;" k="143" />
<hkern u1="&#x2018;" u2="u" k="61" />
<hkern u1="&#x2018;" u2="s" k="61" />
<hkern u1="&#x2018;" u2="r" k="61" />
<hkern u1="&#x2018;" u2="q" k="123" />
<hkern u1="&#x2018;" u2="p" k="61" />
<hkern u1="&#x2018;" u2="o" k="123" />
<hkern u1="&#x2018;" u2="n" k="61" />
<hkern u1="&#x2018;" u2="m" k="61" />
<hkern u1="&#x2018;" u2="g" k="61" />
<hkern u1="&#x2018;" u2="e" k="123" />
<hkern u1="&#x2018;" u2="d" k="123" />
<hkern u1="&#x2018;" u2="c" k="123" />
<hkern u1="&#x2018;" u2="a" k="82" />
<hkern u1="&#x2018;" u2="Y" k="-20" />
<hkern u1="&#x2018;" u2="W" k="-41" />
<hkern u1="&#x2018;" u2="V" k="-41" />
<hkern u1="&#x2018;" u2="T" k="-41" />
<hkern u1="&#x2018;" u2="A" k="143" />
<hkern u1="&#x2019;" u2="&#x16f;" k="61" />
<hkern u1="&#x2019;" u2="&#x164;" k="-41" />
<hkern u1="&#x2019;" u2="&#x11b;" k="123" />
<hkern u1="&#x2019;" u2="&#x10f;" k="123" />
<hkern u1="&#x2019;" u2="&#x10d;" k="123" />
<hkern u1="&#x2019;" u2="&#xfa;" k="61" />
<hkern u1="&#x2019;" u2="&#xf3;" k="123" />
<hkern u1="&#x2019;" u2="&#xe9;" k="123" />
<hkern u1="&#x2019;" u2="&#xe1;" k="82" />
<hkern u1="&#x2019;" u2="&#xdd;" k="-20" />
<hkern u1="&#x2019;" u2="&#xc1;" k="143" />
<hkern u1="&#x2019;" u2="u" k="61" />
<hkern u1="&#x2019;" u2="s" k="61" />
<hkern u1="&#x2019;" u2="r" k="61" />
<hkern u1="&#x2019;" u2="q" k="123" />
<hkern u1="&#x2019;" u2="p" k="61" />
<hkern u1="&#x2019;" u2="o" k="123" />
<hkern u1="&#x2019;" u2="n" k="61" />
<hkern u1="&#x2019;" u2="m" k="61" />
<hkern u1="&#x2019;" u2="g" k="61" />
<hkern u1="&#x2019;" u2="e" k="123" />
<hkern u1="&#x2019;" u2="d" k="123" />
<hkern u1="&#x2019;" u2="c" k="123" />
<hkern u1="&#x2019;" u2="a" k="82" />
<hkern u1="&#x2019;" u2="Y" k="-20" />
<hkern u1="&#x2019;" u2="W" k="-41" />
<hkern u1="&#x2019;" u2="V" k="-41" />
<hkern u1="&#x2019;" u2="T" k="-41" />
<hkern u1="&#x2019;" u2="A" k="143" />
<hkern u1="&#x201a;" u2="&#x16e;" k="41" />
<hkern u1="&#x201a;" u2="&#x164;" k="143" />
<hkern u1="&#x201a;" u2="&#x10c;" k="102" />
<hkern u1="&#x201a;" u2="&#xdd;" k="123" />
<hkern u1="&#x201a;" u2="&#xda;" k="41" />
<hkern u1="&#x201a;" u2="&#xd3;" k="102" />
<hkern u1="&#x201a;" u2="Y" k="123" />
<hkern u1="&#x201a;" u2="W" k="123" />
<hkern u1="&#x201a;" u2="V" k="123" />
<hkern u1="&#x201a;" u2="U" k="41" />
<hkern u1="&#x201a;" u2="T" k="143" />
<hkern u1="&#x201a;" u2="Q" k="102" />
<hkern u1="&#x201a;" u2="O" k="102" />
<hkern u1="&#x201a;" u2="G" k="102" />
<hkern u1="&#x201a;" u2="C" k="102" />
<hkern u1="&#x201c;" u2="&#x16f;" k="61" />
<hkern u1="&#x201c;" u2="&#x164;" k="-41" />
<hkern u1="&#x201c;" u2="&#x11b;" k="123" />
<hkern u1="&#x201c;" u2="&#x10f;" k="123" />
<hkern u1="&#x201c;" u2="&#x10d;" k="123" />
<hkern u1="&#x201c;" u2="&#xfa;" k="61" />
<hkern u1="&#x201c;" u2="&#xf3;" k="123" />
<hkern u1="&#x201c;" u2="&#xe9;" k="123" />
<hkern u1="&#x201c;" u2="&#xe1;" k="82" />
<hkern u1="&#x201c;" u2="&#xdd;" k="-20" />
<hkern u1="&#x201c;" u2="&#xc1;" k="143" />
<hkern u1="&#x201c;" u2="u" k="61" />
<hkern u1="&#x201c;" u2="s" k="61" />
<hkern u1="&#x201c;" u2="r" k="61" />
<hkern u1="&#x201c;" u2="q" k="123" />
<hkern u1="&#x201c;" u2="p" k="61" />
<hkern u1="&#x201c;" u2="o" k="123" />
<hkern u1="&#x201c;" u2="n" k="61" />
<hkern u1="&#x201c;" u2="m" k="61" />
<hkern u1="&#x201c;" u2="g" k="61" />
<hkern u1="&#x201c;" u2="e" k="123" />
<hkern u1="&#x201c;" u2="d" k="123" />
<hkern u1="&#x201c;" u2="c" k="123" />
<hkern u1="&#x201c;" u2="a" k="82" />
<hkern u1="&#x201c;" u2="Y" k="-20" />
<hkern u1="&#x201c;" u2="W" k="-41" />
<hkern u1="&#x201c;" u2="V" k="-41" />
<hkern u1="&#x201c;" u2="T" k="-41" />
<hkern u1="&#x201c;" u2="A" k="143" />
<hkern u1="&#x201e;" u2="&#x16e;" k="41" />
<hkern u1="&#x201e;" u2="&#x164;" k="143" />
<hkern u1="&#x201e;" u2="&#x10c;" k="102" />
<hkern u1="&#x201e;" u2="&#xdd;" k="123" />
<hkern u1="&#x201e;" u2="&#xda;" k="41" />
<hkern u1="&#x201e;" u2="&#xd3;" k="102" />
<hkern u1="&#x201e;" u2="Y" k="123" />
<hkern u1="&#x201e;" u2="W" k="123" />
<hkern u1="&#x201e;" u2="V" k="123" />
<hkern u1="&#x201e;" u2="U" k="41" />
<hkern u1="&#x201e;" u2="T" k="143" />
<hkern u1="&#x201e;" u2="Q" k="102" />
<hkern u1="&#x201e;" u2="O" k="102" />
<hkern u1="&#x201e;" u2="G" k="102" />
<hkern u1="&#x201e;" u2="C" k="102" />
</font>
</defs></svg> 